<?xml version="1.0" encoding="UTF-8" standalone="no"?>
<graphml xmlns="http://graphml.graphdrawing.org/xmlns" xmlns:java="http://www.yworks.com/xml/yfiles-common/1.0/java" xmlns:sys="http://www.yworks.com/xml/yfiles-common/markup/primitives/2.0" xmlns:x="http://www.yworks.com/xml/yfiles-common/markup/2.0" xmlns:xsi="http://www.w3.org/2001/XMLSchema-instance" xmlns:y="http://www.yworks.com/xml/graphml" xmlns:yed="http://www.yworks.com/xml/yed/3" xsi:schemaLocation="http://graphml.graphdrawing.org/xmlns http://www.yworks.com/xml/schema/graphml/1.1/ygraphml.xsd">
  <!--Created by yEd 3.20-->
  <key attr.name="Description" attr.type="string" for="graph" id="d0"/>
  <key for="port" id="d1" yfiles.type="portgraphics"/>
  <key for="port" id="d2" yfiles.type="portgeometry"/>
  <key for="port" id="d3" yfiles.type="portuserdata"/>
  <key attr.name="url" attr.type="string" for="node" id="d4"/>
  <key attr.name="description" attr.type="string" for="node" id="d5"/>
  <key for="node" id="d6" yfiles.type="nodegraphics"/>
  <key for="graphml" id="d7" yfiles.type="resources"/>
  <key attr.name="url" attr.type="string" for="edge" id="d8"/>
  <key attr.name="description" attr.type="string" for="edge" id="d9"/>
  <key for="edge" id="d10" yfiles.type="edgegraphics"/>
  <graph edgedefault="directed" id="G">
    <data key="d0"/>
    <node id="n0" yfiles.foldertype="group">
      <data key="d4" xml:space="preserve"/>
      <data key="d5"/>
      <data key="d6">
        <y:ProxyAutoBoundsNode>
          <y:Realizers active="0">
            <y:GroupNode>
              <y:Geometry height="383.66419982910156" width="528.286507936508" x="0.0" y="100.88799667358398"/>
              <y:Fill color="#CAECFF84" transparent="false"/>
              <y:BorderStyle color="#666699" type="dotted" width="1.0"/>
              <y:NodeLabel alignment="right" autoSizePolicy="node_width" backgroundColor="#99CCFF" borderDistance="0.0" fontFamily="FreeSerif" fontSize="15" fontStyle="plain" hasLineColor="false" height="19.000104904174805" horizontalTextPosition="center" iconTextGap="4" modelName="internal" modelPosition="t" textColor="#000000" verticalTextPosition="bottom" visible="true" width="528.286507936508" x="0.0" xml:space="preserve" y="0.0">Preprocess data</y:NodeLabel>
              <y:Shape type="roundrectangle"/>
              <y:State closed="false" closedHeight="50.0" closedWidth="50.0" innerGraphDisplayEnabled="false"/>
              <y:Insets bottom="15" bottomF="15.0" left="15" leftF="15.0" right="15" rightF="15.0" top="15" topF="15.0"/>
              <y:BorderInsets bottom="0" bottomF="0.0" left="0" leftF="2.1807958211184086E-4" right="0" rightF="2.1807958216868428E-4" top="0" topF="0.0"/>
            </y:GroupNode>
            <y:GroupNode>
              <y:Geometry height="50.0" width="50.0" x="218.5" y="218.40486335754395"/>
              <y:Fill color="#CAECFF84" transparent="false"/>
              <y:BorderStyle color="#666699" type="dotted" width="1.0"/>
              <y:NodeLabel alignment="right" autoSizePolicy="node_width" backgroundColor="#99CCFF" borderDistance="0.0" fontFamily="Dialog" fontSize="15" fontStyle="plain" hasLineColor="false" height="21.4609375" horizontalTextPosition="center" iconTextGap="4" modelName="internal" modelPosition="t" textColor="#000000" verticalTextPosition="bottom" visible="true" width="50.0" x="0.0" xml:space="preserve" y="0.0">2</y:NodeLabel>
              <y:Shape type="roundrectangle"/>
              <y:State closed="true" closedHeight="50.0" closedWidth="50.0" innerGraphDisplayEnabled="false"/>
              <y:Insets bottom="15" bottomF="15.0" left="15" leftF="15.0" right="15" rightF="15.0" top="15" topF="15.0"/>
              <y:BorderInsets bottom="0" bottomF="0.0" left="0" leftF="0.0" right="0" rightF="0.0" top="0" topF="0.0"/>
            </y:GroupNode>
          </y:Realizers>
        </y:ProxyAutoBoundsNode>
      </data>
      <graph edgedefault="directed" id="n0:">
        <node id="n0::n0">
          <data key="d5"/>
          <data key="d6">
            <y:GenericNode configuration="ShinyPlateNode3">
              <y:Geometry height="46.887996673583984" width="329.39080810546875" x="99.44784991551961" y="201.77609825134277"/>
              <y:Fill color="#00CCFF" transparent="false"/>
              <y:BorderStyle hasColor="false" type="line" width="1.0"/>
              <y:NodeLabel alignment="center" autoSizePolicy="content" fontFamily="FreeSerif" fontSize="14" fontStyle="bold" hasBackgroundColor="false" hasLineColor="false" height="17.99993896484375" horizontalTextPosition="center" iconTextGap="4" modelName="custom" textColor="#333399" verticalTextPosition="bottom" visible="true" width="281.64691162109375" x="23.8719482421875" xml:space="preserve" y="14.444028854370117">Select Role and Content column and clean text<y:LabelModel><y:SmartNodeLabelModel distance="4.0"/></y:LabelModel><y:ModelParameter><y:SmartNodeLabelModelParameter labelRatioX="0.0" labelRatioY="0.0" nodeRatioX="0.0" nodeRatioY="0.0" offsetX="0.0" offsetY="0.0" upX="0.0" upY="-1.0"/></y:ModelParameter></y:NodeLabel>
            </y:GenericNode>
          </data>
        </node>
        <node id="n0::n1">
          <data key="d5"/>
          <data key="d6">
            <y:GenericNode configuration="ShinyPlateNode3">
              <y:Geometry height="30.0" width="498.28607177734375" x="15.000218079582112" y="389.55219650268555"/>
              <y:Fill color="#00CCFF" transparent="false"/>
              <y:BorderStyle hasColor="false" type="line" width="1.0"/>
              <y:NodeLabel alignment="center" autoSizePolicy="content" fontFamily="FreeSerif" fontSize="14" fontStyle="bold" hasBackgroundColor="false" hasLineColor="false" height="17.99993896484375" horizontalTextPosition="center" iconTextGap="4" modelName="custom" textColor="#333399" verticalTextPosition="bottom" visible="true" width="429.89239501953125" x="34.19683837890625" xml:space="preserve" y="6.000030517578125">Prioritize by frequency and select most frequent n words per each class<y:LabelModel><y:SmartNodeLabelModel distance="4.0"/></y:LabelModel><y:ModelParameter><y:SmartNodeLabelModelParameter labelRatioX="0.0" labelRatioY="0.0" nodeRatioX="0.0" nodeRatioY="0.0" offsetX="0.0" offsetY="0.0" upX="0.0" upY="-1.0"/></y:ModelParameter></y:NodeLabel>
            </y:GenericNode>
          </data>
        </node>
        <node id="n0::n2">
          <data key="d5"/>
          <data key="d6">
            <y:GenericNode configuration="ShinyPlateNode3">
              <y:Geometry height="30.0" width="261.7010192871094" x="133.2927443246993" y="335.55209159851074"/>
              <y:Fill color="#00CCFF" transparent="false"/>
              <y:BorderStyle hasColor="false" type="line" width="1.0"/>
              <y:NodeLabel alignment="center" autoSizePolicy="content" fontFamily="FreeSerif" fontSize="14" fontStyle="bold" hasBackgroundColor="false" hasLineColor="false" height="17.99993896484375" horizontalTextPosition="center" iconTextGap="4" modelName="custom" textColor="#333399" verticalTextPosition="bottom" visible="true" width="222.95916748046875" x="19.370925903320312" xml:space="preserve" y="6.000030517578125">Filter unique words set per each role<y:LabelModel><y:SmartNodeLabelModel distance="4.0"/></y:LabelModel><y:ModelParameter><y:SmartNodeLabelModelParameter labelRatioX="0.0" labelRatioY="0.0" nodeRatioX="0.0" nodeRatioY="0.0" offsetX="0.0" offsetY="0.0" upX="0.0" upY="-1.0"/></y:ModelParameter></y:NodeLabel>
            </y:GenericNode>
          </data>
        </node>
        <node id="n0::n3">
          <data key="d5"/>
          <data key="d6">
            <y:GenericNode configuration="ShinyPlateNode3">
              <y:Geometry height="30.0" width="320.6687927246094" x="103.8088576059493" y="439.55219650268555"/>
              <y:Fill color="#00CCFF" transparent="false"/>
              <y:BorderStyle hasColor="false" type="line" width="1.0"/>
              <y:NodeLabel alignment="center" autoSizePolicy="content" fontFamily="FreeSerif" fontSize="14" fontStyle="bold" hasBackgroundColor="false" hasLineColor="false" height="17.99993896484375" horizontalTextPosition="center" iconTextGap="4" modelName="custom" textColor="#333399" verticalTextPosition="bottom" visible="true" width="276.90093994140625" x="21.883926391601562" xml:space="preserve" y="6.000030517578125">Create BoW array by selected frequent words<y:LabelModel><y:SmartNodeLabelModel distance="4.0"/></y:LabelModel><y:ModelParameter><y:SmartNodeLabelModelParameter labelRatioX="0.0" labelRatioY="0.0" nodeRatioX="0.0" nodeRatioY="0.0" offsetX="0.0" offsetY="0.0" upX="0.0" upY="-1.0"/></y:ModelParameter></y:NodeLabel>
            </y:GenericNode>
          </data>
        </node>
        <node id="n0::n4">
          <data key="d5"/>
          <data key="d6">
            <y:GenericNode configuration="ShinyPlateNode3">
              <y:Geometry height="46.887996673583984" width="209.29920959472656" x="159.4936491708907" y="268.66409492492676"/>
              <y:Fill color="#00CCFF" transparent="false"/>
              <y:BorderStyle hasColor="false" type="line" width="1.0"/>
              <y:NodeLabel alignment="center" autoSizePolicy="content" fontFamily="FreeSerif" fontSize="14" fontStyle="bold" hasBackgroundColor="false" hasLineColor="false" height="17.99993896484375" horizontalTextPosition="center" iconTextGap="4" modelName="custom" textColor="#333399" verticalTextPosition="bottom" visible="true" width="182.97531127929688" x="13.161949157714844" xml:space="preserve" y="14.444028854370117">Create word set for each roles<y:LabelModel><y:SmartNodeLabelModel distance="4.0"/></y:LabelModel><y:ModelParameter><y:SmartNodeLabelModelParameter labelRatioX="0.0" labelRatioY="0.0" nodeRatioX="0.0" nodeRatioY="0.0" offsetX="0.0" offsetY="0.0" upX="0.0" upY="-1.0"/></y:ModelParameter></y:NodeLabel>
            </y:GenericNode>
          </data>
        </node>
        <node id="n0::n5">
          <data key="d5"/>
          <data key="d6">
            <y:GenericNode configuration="ShinyPlateNode3">
              <y:Geometry height="46.887996673583984" width="104.17362976074219" x="212.0564390878829" y="134.8881015777588"/>
              <y:Fill color="#00CCFF" transparent="false"/>
              <y:BorderStyle hasColor="false" type="line" width="1.0"/>
              <y:NodeLabel alignment="center" autoSizePolicy="content" fontFamily="FreeSerif" fontSize="14" fontStyle="bold" hasBackgroundColor="false" hasLineColor="false" height="17.99993896484375" horizontalTextPosition="center" iconTextGap="4" modelName="custom" textColor="#333399" verticalTextPosition="bottom" visible="true" width="84.023681640625" x="10.074974060058594" xml:space="preserve" y="14.444028854370117">Read Dataset<y:LabelModel><y:SmartNodeLabelModel distance="4.0"/></y:LabelModel><y:ModelParameter><y:SmartNodeLabelModelParameter labelRatioX="0.0" labelRatioY="0.0" nodeRatioX="0.0" nodeRatioY="0.0" offsetX="0.0" offsetY="0.0" upX="0.0" upY="-1.0"/></y:ModelParameter></y:NodeLabel>
            </y:GenericNode>
          </data>
        </node>
      </graph>
    </node>
    <node id="n1" yfiles.foldertype="group">
      <data key="d4" xml:space="preserve"/>
      <data key="d5"/>
      <data key="d6">
        <y:ProxyAutoBoundsNode>
          <y:Realizers active="0">
            <y:GroupNode>
              <y:Geometry height="304.0001049041748" width="513.4222222222222" x="558.2865079365081" y="355.55209159851074"/>
              <y:Fill color="#CAECFF84" transparent="false"/>
              <y:BorderStyle color="#666699" type="dotted" width="1.0"/>
              <y:NodeLabel alignment="right" autoSizePolicy="node_width" backgroundColor="#99CCFF" borderDistance="0.0" fontFamily="FreeSerif" fontSize="15" fontStyle="plain" hasLineColor="false" height="19.000104904174805" horizontalTextPosition="center" iconTextGap="4" modelName="internal" modelPosition="t" textColor="#000000" verticalTextPosition="bottom" visible="true" width="513.4222222222222" x="0.0" xml:space="preserve" y="0.0">Train model</y:NodeLabel>
              <y:Shape type="roundrectangle"/>
              <y:State closed="false" closedHeight="50.0" closedWidth="50.0" innerGraphDisplayEnabled="false"/>
              <y:Insets bottom="15" bottomF="15.0" left="15" leftF="15.0" right="15" rightF="15.0" top="15" topF="15.0"/>
              <y:BorderInsets bottom="0" bottomF="0.0" left="0" leftF="1.116071426849885E-4" right="0" rightF="1.1780753993662074E-4" top="0" topF="0.0"/>
            </y:GroupNode>
            <y:GroupNode>
              <y:Geometry height="50.0" width="50.0" x="558.2865079365081" y="355.55209159851074"/>
              <y:Fill color="#CAECFF84" transparent="false"/>
              <y:BorderStyle color="#666699" type="dotted" width="1.0"/>
              <y:NodeLabel alignment="right" autoSizePolicy="node_width" backgroundColor="#99CCFF" borderDistance="0.0" fontFamily="Dialog" fontSize="15" fontStyle="plain" hasLineColor="false" height="21.4609375" horizontalTextPosition="center" iconTextGap="4" modelName="internal" modelPosition="t" textColor="#000000" verticalTextPosition="bottom" visible="true" width="50.0" x="0.0" xml:space="preserve" y="0.0">2</y:NodeLabel>
              <y:Shape type="roundrectangle"/>
              <y:State closed="true" closedHeight="50.0" closedWidth="50.0" innerGraphDisplayEnabled="false"/>
              <y:Insets bottom="15" bottomF="15.0" left="15" leftF="15.0" right="15" rightF="15.0" top="15" topF="15.0"/>
              <y:BorderInsets bottom="0" bottomF="0.0" left="0" leftF="0.0" right="0" rightF="0.0" top="0" topF="0.0"/>
            </y:GroupNode>
          </y:Realizers>
        </y:ProxyAutoBoundsNode>
      </data>
      <graph edgedefault="directed" id="n1:">
        <node id="n1::n0">
          <data key="d5"/>
          <data key="d6">
            <y:GenericNode configuration="ShinyPlateNode3">
              <y:Geometry height="30.0" width="200.9140625" x="573.2866195436508" y="509.55219650268555"/>
              <y:Fill color="#00FF00" transparent="false"/>
              <y:BorderStyle hasColor="false" type="line" width="1.0"/>
              <y:NodeLabel alignment="center" autoSizePolicy="content" fontFamily="FreeSerif" fontSize="14" fontStyle="bold" hasBackgroundColor="false" hasLineColor="false" height="17.99993896484375" horizontalTextPosition="center" iconTextGap="4" modelName="custom" textColor="#003300" verticalTextPosition="bottom" visible="true" width="191.50128173828125" x="4.706390380859375" xml:space="preserve" y="6.000030517578125">Convert to BoW representation<y:LabelModel><y:SmartNodeLabelModel distance="4.0"/></y:LabelModel><y:ModelParameter><y:SmartNodeLabelModelParameter labelRatioX="0.0" labelRatioY="0.0" nodeRatioX="0.0" nodeRatioY="0.0" offsetX="0.0" offsetY="0.0" upX="0.0" upY="-1.0"/></y:ModelParameter></y:NodeLabel>
            </y:GenericNode>
          </data>
        </node>
        <node id="n1::n1">
          <data key="d5"/>
          <data key="d6">
            <y:GenericNode configuration="ShinyPlateNode3">
              <y:Geometry height="30.0" width="125.29296875" x="804.2007378472222" y="509.55219650268555"/>
              <y:Fill color="#00FF00" transparent="false"/>
              <y:BorderStyle hasColor="false" type="line" width="1.0"/>
              <y:NodeLabel alignment="center" autoSizePolicy="content" fontFamily="FreeSerif" fontSize="14" fontStyle="bold" hasBackgroundColor="false" hasLineColor="false" height="17.99993896484375" horizontalTextPosition="center" iconTextGap="4" modelName="custom" textColor="#003300" verticalTextPosition="bottom" visible="true" width="117.88955688476562" x="3.7017059326171875" xml:space="preserve" y="6.000030517578125">Create ANN model<y:LabelModel><y:SmartNodeLabelModel distance="4.0"/></y:LabelModel><y:ModelParameter><y:SmartNodeLabelModelParameter labelRatioX="0.0" labelRatioY="0.0" nodeRatioX="0.0" nodeRatioY="0.0" offsetX="0.0" offsetY="0.0" upX="0.0" upY="-1.0"/></y:ModelParameter></y:NodeLabel>
            </y:GenericNode>
          </data>
        </node>
        <node id="n1::n2">
          <data key="d5"/>
          <data key="d6">
            <y:GenericNode configuration="ShinyPlateNode3">
              <y:Geometry height="30.0" width="97.21484374999989" x="959.4937686011906" y="509.55219650268555"/>
              <y:Fill color="#00FF00" transparent="false"/>
              <y:BorderStyle hasColor="false" type="line" width="1.0"/>
              <y:NodeLabel alignment="center" autoSizePolicy="content" fontFamily="FreeSerif" fontSize="14" fontStyle="bold" hasBackgroundColor="false" hasLineColor="false" height="17.99993896484375" horizontalTextPosition="center" iconTextGap="4" modelName="custom" textColor="#003300" verticalTextPosition="bottom" visible="true" width="85.98368835449219" x="5.615577697753906" xml:space="preserve" y="6.000030517578125">Encode labels<y:LabelModel><y:SmartNodeLabelModel distance="4.0"/></y:LabelModel><y:ModelParameter><y:SmartNodeLabelModelParameter labelRatioX="0.0" labelRatioY="0.0" nodeRatioX="5.551115123125783E-16" nodeRatioY="0.0" offsetX="0.0" offsetY="0.0" upX="0.0" upY="-1.0"/></y:ModelParameter></y:NodeLabel>
            </y:GenericNode>
          </data>
        </node>
        <node id="n1::n3">
          <data key="d5"/>
          <data key="d6">
            <y:GenericNode configuration="ShinyPlateNode3">
              <y:Geometry height="30.0" width="111.306640625" x="811.1939019097222" y="614.5521965026855"/>
              <y:Fill color="#00FF00" transparent="false"/>
              <y:BorderStyle hasColor="false" type="line" width="1.0"/>
              <y:NodeLabel alignment="center" autoSizePolicy="content" fontFamily="FreeSerif" fontSize="14" fontStyle="bold" hasBackgroundColor="false" hasLineColor="false" height="17.99993896484375" horizontalTextPosition="center" iconTextGap="4" modelName="custom" textColor="#003300" verticalTextPosition="bottom" visible="true" width="99.63362121582031" x="5.836509704589844" xml:space="preserve" y="6.000030517578125">Generate charts<y:LabelModel><y:SmartNodeLabelModel distance="4.0"/></y:LabelModel><y:ModelParameter><y:SmartNodeLabelModelParameter labelRatioX="0.0" labelRatioY="0.0" nodeRatioX="0.0" nodeRatioY="0.0" offsetX="0.0" offsetY="0.0" upX="0.0" upY="-1.0"/></y:ModelParameter></y:NodeLabel>
            </y:GenericNode>
          </data>
        </node>
        <node id="n1::n4">
          <data key="d5"/>
          <data key="d6">
            <y:GenericNode configuration="ShinyPlateNode3">
              <y:Geometry height="30.0" width="95.498046875" x="752.1200241815476" y="389.55219650268555"/>
              <y:Fill color="#00FF00" transparent="false"/>
              <y:BorderStyle hasColor="false" type="line" width="1.0"/>
              <y:NodeLabel alignment="center" autoSizePolicy="content" fontFamily="FreeSerif" fontSize="14" fontStyle="bold" hasBackgroundColor="false" hasLineColor="false" height="17.99993896484375" horizontalTextPosition="center" iconTextGap="4" modelName="custom" textColor="#003300" verticalTextPosition="bottom" visible="true" width="84.023681640625" x="5.737182617187386" xml:space="preserve" y="6.000030517578125">Read Dataset<y:LabelModel><y:SmartNodeLabelModel distance="4.0"/></y:LabelModel><y:ModelParameter><y:SmartNodeLabelModelParameter labelRatioX="0.0" labelRatioY="0.0" nodeRatioX="-1.1657341758564144E-15" nodeRatioY="0.0" offsetX="0.0" offsetY="0.0" upX="0.0" upY="-1.0"/></y:ModelParameter></y:NodeLabel>
            </y:GenericNode>
          </data>
        </node>
        <node id="n1::n5">
          <data key="d5"/>
          <data key="d6">
            <y:GenericNode configuration="ShinyPlateNode3">
              <y:Geometry height="30.0" width="303.587890625" x="648.0751023065476" y="439.55219650268555"/>
              <y:Fill color="#00FF00" transparent="false"/>
              <y:BorderStyle hasColor="false" type="line" width="1.0"/>
              <y:NodeLabel alignment="center" autoSizePolicy="content" fontFamily="FreeSerif" fontSize="14" fontStyle="bold" hasBackgroundColor="false" hasLineColor="false" height="17.99993896484375" horizontalTextPosition="center" iconTextGap="4" modelName="custom" textColor="#003300" verticalTextPosition="bottom" visible="true" width="287.3309326171875" x="8.128479003906136" xml:space="preserve" y="6.000030517578125">Select Role and Content colunms and clean text<y:LabelModel><y:SmartNodeLabelModel distance="4.0"/></y:LabelModel><y:ModelParameter><y:SmartNodeLabelModelParameter labelRatioX="0.0" labelRatioY="0.0" nodeRatioX="-3.885780586188048E-16" nodeRatioY="0.0" offsetX="0.0" offsetY="0.0" upX="0.0" upY="-1.0"/></y:ModelParameter></y:NodeLabel>
            </y:GenericNode>
          </data>
        </node>
        <node id="n1::n6">
          <data key="d5"/>
          <data key="d6">
            <y:GenericNode configuration="ShinyPlateNode3">
              <y:Geometry height="30.0" width="109.244140625" x="812.2251519097222" y="564.5521965026855"/>
              <y:Fill color="#00FF00" transparent="false"/>
              <y:BorderStyle hasColor="false" type="line" width="1.0"/>
              <y:NodeLabel alignment="center" autoSizePolicy="content" fontFamily="FreeSerif" fontSize="14" fontStyle="bold" hasBackgroundColor="false" hasLineColor="false" height="17.99993896484375" horizontalTextPosition="center" iconTextGap="4" modelName="custom" textColor="#003300" verticalTextPosition="bottom" visible="true" width="100.09562683105469" x="4.574256896972656" xml:space="preserve" y="6.000030517578125">Train the model<y:LabelModel><y:SmartNodeLabelModel distance="4.0"/></y:LabelModel><y:ModelParameter><y:SmartNodeLabelModelParameter labelRatioX="0.0" labelRatioY="0.0" nodeRatioX="0.0" nodeRatioY="0.0" offsetX="0.0" offsetY="0.0" upX="0.0" upY="-1.0"/></y:ModelParameter></y:NodeLabel>
            </y:GenericNode>
          </data>
        </node>
      </graph>
    </node>
    <node id="n2">
      <data key="d5"/>
      <data key="d6">
        <y:ImageNode>
          <y:Geometry height="288.0" width="432.0" x="650.8472222222222" y="672.5521965026855"/>
          <y:Fill color="#00CCFF" transparent="false"/>
          <y:BorderStyle color="#000000" type="line" width="1.0"/>
          <y:NodeLabel alignment="center" autoSizePolicy="content" backgroundColor="#CCFFFF" fontFamily="Dialog" fontSize="12" fontStyle="plain" hasLineColor="false" hasText="false" height="4.0" horizontalTextPosition="center" iconTextGap="4" modelName="sandwich" modelPosition="n" textColor="#000000" verticalTextPosition="bottom" visible="true" width="4.0" x="214.0" y="-8.0"/>
          <y:Image alphaImage="true" refid="1"/>
        </y:ImageNode>
      </data>
    </node>
    <node id="n3">
      <data key="d5"/>
      <data key="d6">
        <y:SVGNode>
          <y:Geometry height="80.88799667358398" width="75.728515625" x="494.1418929811508" y="0.0"/>
          <y:Fill color="#00FF4F" transparent="false"/>
          <y:BorderStyle color="#000000" type="line" width="1.0"/>
          <y:NodeLabel alignment="center" autoSizePolicy="content" borderDistance="3.0" fontFamily="FreeSerif" fontSize="14" fontStyle="bold" hasBackgroundColor="false" hasLineColor="false" height="17.99993896484375" horizontalTextPosition="center" iconTextGap="4" modelName="custom" textColor="#333399" verticalTextPosition="bottom" visible="true" width="49.513824462890625" x="13.107345581054688" xml:space="preserve" y="31.444028854370117">Dataset<y:LabelModel><y:SmartNodeLabelModel distance="3.0"/></y:LabelModel><y:ModelParameter><y:SmartNodeLabelModelParameter labelRatioX="0.0" labelRatioY="0.0" nodeRatioX="0.0" nodeRatioY="0.0" offsetX="0.0" offsetY="0.0" upX="0.0" upY="-1.0"/></y:ModelParameter></y:NodeLabel>
          <y:SVGNodeProperties usingVisualBounds="true"/>
          <y:SVGModel svgBoundsPolicy="0">
            <y:SVGContent refid="2"/>
          </y:SVGModel>
        </y:SVGNode>
      </data>
    </node>
    <edge id="e0" source="n3" target="n0::n5">
      <data key="d9"/>
      <data key="d10">
        <y:PolyLineEdge>
          <y:Path sx="-18.93212890625" sy="40.44399833679199" tx="0.0" ty="-23.443998336791992">
            <y:Point x="513.0740218874008" y="90.88799667358398"/>
            <y:Point x="264.143253968254" y="90.88799667358398"/>
          </y:Path>
          <y:LineStyle color="#000000" type="line" width="1.0"/>
          <y:Arrows source="none" target="standard"/>
          <y:BendStyle smoothed="false"/>
        </y:PolyLineEdge>
      </data>
    </edge>
    <edge id="n0::e0" source="n0::n5" target="n0::n0">
      <data key="d9"/>
      <data key="d10">
        <y:PolyLineEdge>
          <y:Path sx="0.0" sy="23.443998336791992" tx="0.0" ty="-23.443998336791992"/>
          <y:LineStyle color="#000000" type="line" width="1.0"/>
          <y:Arrows source="none" target="standard"/>
          <y:BendStyle smoothed="false"/>
        </y:PolyLineEdge>
      </data>
    </edge>
    <edge id="n0::e1" source="n0::n0" target="n0::n4">
      <data key="d9"/>
      <data key="d10">
        <y:PolyLineEdge>
          <y:Path sx="0.0" sy="23.443998336791992" tx="0.0" ty="-23.443998336791992"/>
          <y:LineStyle color="#000000" type="line" width="1.0"/>
          <y:Arrows source="none" target="standard"/>
          <y:BendStyle smoothed="false"/>
        </y:PolyLineEdge>
      </data>
    </edge>
    <edge id="n0::e2" source="n0::n2" target="n0::n1">
      <data key="d9"/>
      <data key="d10">
        <y:PolyLineEdge>
          <y:Path sx="0.0" sy="15.0" tx="0.0" ty="-15.0"/>
          <y:LineStyle color="#000000" type="line" width="1.0"/>
          <y:Arrows source="none" target="standard"/>
          <y:BendStyle smoothed="false"/>
        </y:PolyLineEdge>
      </data>
    </edge>
    <edge id="n0::e3" source="n0::n1" target="n0::n3">
      <data key="d9"/>
      <data key="d10">
        <y:PolyLineEdge>
          <y:Path sx="0.0" sy="15.0" tx="0.0" ty="-15.0"/>
          <y:LineStyle color="#000000" type="line" width="1.0"/>
          <y:Arrows source="none" target="standard"/>
          <y:BendStyle smoothed="false"/>
        </y:PolyLineEdge>
      </data>
    </edge>
    <edge id="e1" source="n1::n3" target="n2">
      <data key="d9"/>
      <data key="d10">
        <y:PolyLineEdge>
          <y:Path sx="0.0" sy="15.0" tx="0.0" ty="-144.0"/>
          <y:LineStyle color="#000000" type="line" width="1.0"/>
          <y:Arrows source="none" target="standard"/>
          <y:BendStyle smoothed="false"/>
        </y:PolyLineEdge>
      </data>
    </edge>
    <edge id="n0::e4" source="n0::n4" target="n0::n2">
      <data key="d9"/>
      <data key="d10">
        <y:PolyLineEdge>
          <y:Path sx="0.0" sy="23.443998336791992" tx="0.0" ty="-15.0"/>
          <y:LineStyle color="#000000" type="line" width="1.0"/>
          <y:Arrows source="none" target="standard"/>
          <y:BendStyle smoothed="false"/>
        </y:PolyLineEdge>
      </data>
    </edge>
    <edge id="e2" source="n3" target="n1::n4">
      <data key="d9"/>
      <data key="d10">
        <y:PolyLineEdge>
          <y:Path sx="18.93212890625" sy="40.44399833679199" tx="0.0" ty="-15.0">
            <y:Point x="550.9382796999008" y="90.88799667358398"/>
            <y:Point x="799.8690476190476" y="90.88799667358398"/>
          </y:Path>
          <y:LineStyle color="#000000" type="line" width="1.0"/>
          <y:Arrows source="none" target="standard"/>
          <y:BendStyle smoothed="false"/>
        </y:PolyLineEdge>
      </data>
    </edge>
    <edge id="e3" source="n0::n3" target="n1::n0">
      <data key="d9"/>
      <data key="d10">
        <y:PolyLineEdge>
          <y:Path sx="0.0" sy="15.0" tx="-50.228515625" ty="-15.0">
            <y:Point x="264.143253968254" y="494.55219650268555"/>
            <y:Point x="623.5151351686508" y="494.55219650268555"/>
          </y:Path>
          <y:LineStyle color="#000000" type="line" width="1.0"/>
          <y:Arrows source="none" target="standard"/>
          <y:BendStyle smoothed="false"/>
        </y:PolyLineEdge>
      </data>
    </edge>
    <edge id="n1::e0" source="n1::n0" target="n1::n6">
      <data key="d9"/>
      <data key="d10">
        <y:PolyLineEdge>
          <y:Path sx="0.0" sy="15.0" tx="-36.41471354166667" ty="-15.0">
            <y:Point x="673.7436507936508" y="549.5521965026855"/>
            <y:Point x="830.4325086805555" y="549.5521965026855"/>
          </y:Path>
          <y:LineStyle color="#000000" type="line" width="1.0"/>
          <y:Arrows source="none" target="standard"/>
          <y:BendStyle smoothed="false"/>
        </y:PolyLineEdge>
      </data>
    </edge>
    <edge id="n1::e1" source="n1::n1" target="n1::n6">
      <data key="d9"/>
      <data key="d10">
        <y:PolyLineEdge>
          <y:Path sx="0.0" sy="15.0" tx="0.0" ty="-15.0"/>
          <y:LineStyle color="#000000" type="line" width="1.0"/>
          <y:Arrows source="none" target="standard"/>
          <y:BendStyle smoothed="false"/>
        </y:PolyLineEdge>
      </data>
    </edge>
    <edge id="n1::e2" source="n1::n2" target="n1::n6">
      <data key="d9"/>
      <data key="d10">
        <y:PolyLineEdge>
          <y:Path sx="0.0" sy="15.0" tx="36.41471354166667" ty="-15.0">
            <y:Point x="1008.1011904761906" y="549.5521965026855"/>
            <y:Point x="903.2619357638888" y="549.5521965026855"/>
          </y:Path>
          <y:LineStyle color="#000000" type="line" width="1.0"/>
          <y:Arrows source="none" target="standard"/>
          <y:BendStyle smoothed="false"/>
        </y:PolyLineEdge>
      </data>
    </edge>
    <edge id="n1::e3" source="n1::n4" target="n1::n5">
      <data key="d9"/>
      <data key="d10">
        <y:PolyLineEdge>
          <y:Path sx="0.0" sy="15.0" tx="0.0" ty="-15.0"/>
          <y:LineStyle color="#000000" type="line" width="1.0"/>
          <y:Arrows source="none" target="standard"/>
          <y:BendStyle smoothed="false"/>
        </y:PolyLineEdge>
      </data>
    </edge>
    <edge id="n1::e4" source="n1::n5" target="n1::n0">
      <data key="d9"/>
      <data key="d10">
        <y:PolyLineEdge>
          <y:Path sx="-75.89697265625" sy="15.0" tx="50.228515625" ty="-15.0"/>
          <y:LineStyle color="#000000" type="line" width="1.0"/>
          <y:Arrows source="none" target="standard"/>
          <y:BendStyle smoothed="false"/>
        </y:PolyLineEdge>
      </data>
    </edge>
    <edge id="n1::e5" source="n1::n5" target="n1::n2">
      <data key="d9"/>
      <data key="d10">
        <y:PolyLineEdge>
          <y:Path sx="75.89697265625" sy="15.0" tx="0.0" ty="-15.0">
            <y:Point x="875.7660202752976" y="479.55219650268555"/>
            <y:Point x="1008.1011904761906" y="479.55219650268555"/>
          </y:Path>
          <y:LineStyle color="#000000" type="line" width="1.0"/>
          <y:Arrows source="none" target="standard"/>
          <y:BendStyle smoothed="false"/>
        </y:PolyLineEdge>
      </data>
    </edge>
    <edge id="n1::e6" source="n1::n6" target="n1::n3">
      <data key="d9"/>
      <data key="d10">
        <y:PolyLineEdge>
          <y:Path sx="0.0" sy="15.0" tx="0.0" ty="-15.0"/>
          <y:LineStyle color="#000000" type="line" width="1.0"/>
          <y:Arrows source="none" target="standard"/>
          <y:BendStyle smoothed="false"/>
        </y:PolyLineEdge>
      </data>
    </edge>
  </graph>
  <data key="d7">
    <y:Resources>
      <y:Resource id="1" type="java.awt.image.BufferedImage" xml:space="preserve">iVBORw0KGgoAAAANSUhEUgAAAbAAAAEgCAYAAADVKCZpAABUVUlEQVR4Xu2dCdxV0/r4Q8YMKc1S&#13;
aNIV6k/RzxUhruFKQsiQyJB5ykWSKVNcY6IMGXJvpjJkujLmhi5RNxkikkIhMzfr/37Xeddpn/Wu&#13;
fc7e5z3v2cN5vp/P+pxz1tpnT+tZ61nDs55VTwmCIAhCAqlnRwiCIAhCEhAFJgiCICQSUWCCIAhC&#13;
IhEFJgiCICQSUWCCIAhCIhEFlhKOPPJIVa9ePfXxxx/bSb5MmzZN/2fEiBF2Uslp06aNDl7uvPNO&#13;
fX0+64Ji3okQjGJk57vvvlMnn3yyloPVVltN//+tt96yD4sNxTyjUF4Sq8AQLDusscYaunAcccQR&#13;
6r///a/9l1C8+eab+pzdu3e3kzT3339/9rrz58+3k9VPP/2k1lxzTbX22murX375xU4uOa7Kmu/E&#13;
keainAW0LhQY983/eQ4XrndS19T2mZJCMbJz3HHH6f/ss88+6oILLtD//eKLL+zDYkMxzyiUl8Qr&#13;
MITLhNNOO0317NlTxzdo0KBWrbsVK1aoDTfcULcUaTnaDB48WK2yyir6WuPGjbOT1bPPPqvTdt99&#13;
dzupTli0aJGaO3eu+u2337JxcVdg3377rb5nPouhkAJzvZO6RhSYP61atVIdOnSwo2NLMc8olJfE&#13;
KzAXJ510Ut6KOyj777+/Ps+UKVPsJLXpppuqXXbZRTVu3FgdeuihdrL629/+pv97xRVX2EllI+4K&#13;
rLYUUmBRIArMHxp8vXr1sqNjSzHPKJQXtwZIAPkUGAqHtL322stO0sN5o0aNUltuuaUe3ltvvfXU&#13;
jjvuqP7xj3/Yh6qbbrpJn4eenRejGC699FLVr18/1aJFi5x06NGjhz7mjTfesJNqwP9btmxpR6tN&#13;
NtlEn+Piiy/OiX/yySd1/PDhw7Nx9nCZqdxdwVSu3gJKb5X3tcEGG+j3stNOO6lXX301e/4g/PHH&#13;
H+rGG29UnTt31sOnPNPQoUN1D8ulwPwq+1mzZqkBAwbo4xkW3mijjVTXrl3Vqaeemu1NkWY/lwkG&#13;
+52AV6nz/eCDD9aNEO73//2//6cee+yx7LE2DzzwgOrdu7fumXM898B9mjymcrbvxQTvPdh8//33&#13;
avXVV9ejB17MMDT/nzBhQk7aLbfcouPHjx+fE//++++rww8/XL97zols8Zt4G28D4L777tPD5Yxc&#13;
ePNp8eLF6uijj1ZNmzZVa621ltp6663VXXfdFapy93svXmXGiMeYMWPUtttuq+9hnXXW0d95TtJs&#13;
zP8ZgmQ0hOddddVVa8iSH08//bQeymzSpImWsY033lj99a9/1SMnBr9nZHrhlFNOUVtttVVWFtq1&#13;
a6fOOOMMtWzZspxj4ddff1XXX3+9luGGDRvq8sU7tq8HL730kr4veqvcV7NmzXRdctFFF+UcBz/+&#13;
+KO6/PLLdZ7wvnhv22+/vZ7esKFskm877LCDLk/cM8/cp08fLddJxa0BEoApBC4QLtIuvPDCnHgE&#13;
yRSmTp06qbPOOkudeOKJunASR6/JC/NoxHfp0iUnniFD4qdPn64rbL7PmTMnm86QI0OPCLer8Nkc&#13;
dthh+hwMdxk++OADZ0GHM888U8e/8MIL2Ti7sqbwUeETh4BTCE0wQ6umgO699966UFE5c+4DDzxQ&#13;
VwZUWO+99172GoUw751Kk8l6CvTmm2+uKyLigigwlBfX5X5QLueee67OIwoaFTKVPVx33XXZvOTZ&#13;
vc9nsN8JGAW2884768qLyoEGCvOmFGqe+/nnn88eDxR+cy4KPxUm9zVw4EBd0Zhr8hz77befPo5P&#13;
7z198803Oee0+b//+z9Vv359tXz58mycGYY2z+jlgAMO0PGffPJJNu71119X66+/vu7pcH3kmVEE&#13;
fhNPuhfui3NQYfLs/fv3V8OGDVPHH3+8Tv/qq6/UZpttpo+hkcczcx/kD5Uv8d737QfvxVwLGTDv&#13;
xJvvjGKQ3rp1ay235IlppLhGOIinXHLMn/70Jz3qgvzRuCsE9QL/X3fddXUe8p54rvbt2+e8Zz8F&#13;
xlwedQblBBnnXv/85z/rY7fYYoucPIRDDjlEp9Fo5h55xzQqGMWhvBmmTp2q5Q8lhzxyX1yLxiTX&#13;
84I8oRA5b7du3fTzU04ob8Sdf/75OcebESGuyXH8Puqoo/S7Q5aSilsDJAAywwiXCaeffrouaBRY&#13;
CqUtSLRW+M9f/vIX9fvvv2fjlyxZki0sdq+Dipfzffnll9k4ChTCzzlmz56t/4ciM5geIJVHEGhF&#13;
czw9PsOtt96q45hDoyVGa8uwzTbb6AoehWzIV1nblZ/BFFCC3XI11z/hhBNy4v3gvXE8BWjp0qXZ&#13;
+J9//lm3CkkLosCoEIh79NFHVx5YDa1bb4PAVIo8h4t874Rgt2qfeuopHY98eBk7dqyO32677WrM&#13;
1/3vf//Tc20G1zMFgd40/3v88cezcSgMGkI0LGgtG3gHjRo10srFgJKlUcY57r333mw80MImvmPH&#13;
js73R+v9P//5j+cfGY499lidbo9A0ONE2ZJmV+754Hi7MQbGIIoK2TRQ4IcfftC9YtLoIXoxeYgi&#13;
8JblQtDz4n9U5AsXLrST1WeffZb97qfAaDSQ7zamYeudNkBeqD94Dtd/vv766+x3RnP4/9tvv+05&#13;
IgONCS9Gtq+88sqceMrbHnvsoa/ptQFAXmhseesRg33uJJF4BeYKDGHZAg9088lYb0/HYIRv0KBB&#13;
OfG00Ij3DjGi1LyVHK0jr7KiwPMfr0LKBwWC473noHXH8AFDWqRR8ACB5xls45B8lXUhBUbr34ah&#13;
OiopCl4QjjnmGH2uO+64w07KXieMAjPPm4/aKDDuxVWhMGzLkKIXWs78x1XJ27ieKQj0pvkfjTAD&#13;
CpNhPTOUPW/ePB0/c+ZM/RsFY3jllVd0HENELmjYkf7iiy9m48z7sxUUkP8oNobYbaUN5t3alXs+&#13;
ON6lwHbbbTffPH/uued0GvPNXoijYUfjMww0bPnvww8/bCfVwE+B+UEjgp6u914ZjeEcDA+Tng+j&#13;
wEw++0EdQMOGkQ0XKEDOc/bZZ2fjUGBt27Yti0V0OUm8AvNCi23GjBlagEg777zzsmn0xoijFeIC&#13;
U3jS6d14oUImnq48mGHFq666KnvMQQcdlDNcyNg4x7gUpR+0ps05EHSGtxh64L5RJOecc44+btKk&#13;
SfrczON5yVdZF1JgDNm44F15W/n5YBiDc3300Ud2km4hU+CCKDDyj2PpYdK6vvvuu9WHH3648k8e&#13;
aqPAGGJzgTJnGMeATHE8jYkguJ4pCPSmeWZkB1AavAeGeozMMR8EV199tf49ceLE7P9vuOEGHWcP&#13;
HRnMsNnf//73bJx5f645k3feeUenMTTmwjxn0ModON6lwKhceefeEQWDkR2G1bxwrmIsGhkCpgHI&#13;
/GIh/BQYyp0RF2SFMsu9c5wJ9n3tu+++Op68HTlypB6idvWEHnroIX0cz0p9Q8/Z2yM0MNTIcTRw&#13;
uDc7UO+RjrI2MKRPHOWZnj3ncDVMkkaqFJiB8WEmNKn4P/30Ux2HIHC8X6uFrjfptFK8LFiwQMfT&#13;
ewMz58VErsFMqBPHUCMFxE9R+mGGaxieMS0oY55Pq9r0hJifIM2ez8hXWRdSYHYBNaBwbKXjhxl7&#13;
p8J3gQKwz+VX2TO3aOblTD4z/GVXtNw3acUoML93YubVDAwz8RsFHQS/ZwoCvWozXM0QKuehBwL0&#13;
+s1cxZ577qmP8/Y+LrnkEn28X68fAwnSvcOm5v3Zc37w8ssv6zTmxVyYStRPdlxwvEuBoaBQLH4g&#13;
OzyvF87F3FBYqBNQmEHwKx/GOhllwDwSCsEoD4ygbDlHWZLGHBv/IzCPyOgORjJeGEKmAc58rzmW&#13;
sv/MM89kj2GI2KTlC8zzGhhtYN7YNK4JvAvmMplvTypuDZAATCb4YXoEZi7F9MC8cwleTA8Mgwcb&#13;
UzmjDBFeWkjeuQR6WqTTK2Ooke9MwoaB1jT/o2c1evRo/d1UvLSqaeUxt0QhoJDYw1/FVNZ+BdQQ&#13;
RoGVqgfmheEO5taYH+Kdc6zXastUwHWpwMrVAwPynv8iC7SYqeRoWAGGPlS8vBMaZwxrejE9MBYI&#13;
uzA9MCoxQ773F0UPzLVez8gOMu/F71yFqG0PjAYmcQx72nNv1AnGwtAP6hAUkBk2ZWjXBXL3r3/9&#13;
Sw8pIwcMlxpDMTOt4B1uDgMNH3p7TFNwHuq3pA4t+muAmMOLJ/jBJC3p3rFuMgrhdZkUG0MKew4M&#13;
hgwZotMYTmTIwDX81Lx5c90yNt4GGPoKA0LFvSHY9D68Q3e0kDknlQ+fruu7KmsKC3G09Fy4CqiX&#13;
MAqsVHNgfmBGzrFYWxlYXkCc6aXYuN5JWAUGYebAzH26FrcXgl41/+VdYh2G8YbBDGUbGbCHfU2P&#13;
ya9CNFZyrjkwlwIr5xzYrrvu6puPVOKkuebAXOcqRG3nwExDkwaDzWuvvabTbDl3gbJjVIfjvYYc&#13;
LoycX3PNNfo3dQUK3280KQzIGOf2jiglCX8NEHN46QQXjzzyiE6jG+7tol922WU6HgXg7cFghcPQ&#13;
IWlUBDbGiguzXT698wgG5qtoGRvF6bJwKoR3bZp3gp7WEa0wY+7PmhIbV2WNRRdK0W+oxVVAvYRR&#13;
YMaIoLZWiPS4XK1jM+9j5gLh5ptv1nEupQmud1KMArvtttt0nMsKkYrIa4X4xBNP6GPtJRxBQCbp&#13;
aTD/yTmQV4Mx9DEyMHnyZM8/MwYEDLOSxjypFzNvytyMywrRpcCgXFaIGFyZ9+udG+I7caTZlpV+&#13;
5ypEIStEb5yrfBglhcGFF5SKGYXwyjnDwfRmbRgRotHrXTpB48Lu1QFrKTmvmQMF5oeJQ7nZozHA&#13;
vLFxcUf9Qfm0oZHCnD/nqa3rvahwa4AEwEs3wmUC67pYjEulTRqVnhcmiY01Fi1crHQQDlMpeCtH&#13;
L2Zey1zTJZCmkiNQkRSDWbdFsBcXmlYqAdN9G1dlDSgP7h3Tf+Y/mCthrRW4CqiXMAoMzERxbdaB&#13;
0bhAgZOP5A1rZmg1m3V1XoMOCh0tUYb3uBbPRjC43kkxCgzlYCoMlAs9JLN2iHVL3veHqT89F6zR&#13;
uH9zT7bi88OsIyP8+9//zkkzQ9m8C9f5OJ53xzthqJt7pKLlN/H2+bhvzuenwEq1DszA8X5KB0Mo&#13;
0mlIojAZHjONQdYD2uQ7VyEYZuX/vBPyFaMH1vZRbr1y4SofKAuMN4hnbpo6hOkC5IJ3xIJqr5xj&#13;
ys6xNH4ZBjbrGo2TAtaFGZi+YIgTGaAu4Nymh8Q5vYuksW40DUOmFRg54tzci1H6xsgHmwB+0+Pj&#13;
XVLPcV3WrBFPXiaVxCswb6Bg06ohQ7yTnl7oEdCyRYFREFnPhUDaBgI2ZvITAXOZw3oXHiOgxWDW&#13;
j9kT9GDWsPnNxbgqa+C+UADMMxglbBSGq4B6CavAjCcO1iMxZo/S4l2E8cRBC5mJcQoXSgBlQM8B&#13;
hehdtGu45557dMEnL837N7jeSTEKzEAvgN4s98XCXypbGgaYtXvBwIHKhR65uSc7X/wwc1lcw25Z&#13;
m6FsPwfTwMJzhoxN655PKk7XgvRCCgzwdEHliNwbTxzkVyHZccHxfkqHniE9agwWGIUg0KPBKMXl&#13;
DCDfuYJAT5n1UjSKjCeOvn376iFLg98zMsLA+kjkGTlAydNYoMdoyznKA8tDhkBRblyLPOHeqXO8&#13;
dQnz53h2QdEgOyhY6ikUrHcdqoEGOeUNRYq8cG4aVCg9hprN0CQ9LdaLMcVBOvdMfrKIH+Mel/Vn&#13;
UnCXVEEQBEGIOaLABEEQhEQiCkwQBEFIJKLABEEQhEQiCkwQBEFIJKLABEEQhEQiCkwQBEFIJKLA&#13;
BEEQhEQiCkwQBEFIJKLABEEQhEQiCkwQBEFIJHkVGD7d8EOHE1F7B2Bgs0c2TcOjMc4q8S8G+H0z&#13;
ftMIZjdjvC6bOAJbt5ttIfDE3LVrV+3P0PamjTNS8x92NxUEQRAEXwWGI1GcVLJBIc4ecWZrNlQz&#13;
sN2CcfFPmnFiiQLDCWUhcNZp9ifiP3hJxzu0rcBwbCkIgiAIXnwVGNu69+nTJ/sbb+gEL3jHvuKK&#13;
K/R3jscrMgRRYPPmzdMeoG3P7ngJFwUmCIIgFMJXgaFE2CPHwE6z7G/khY382ISxVatWest3s6sn&#13;
CoxtMBhaZPuJl156Ked/wBYDZ555ph3tVGAMK7LNAu7/2awyCAxP8h8JEuoiIF9RIbItoS5DlLId&#13;
llopsNGjR2e3uaYHxh5O7N3DDqBmLxqUGj0tNmDzwrGubaxdCszskspwJsOU3k0NvYwdOzabCWwY&#13;
Jwh1BTIWFVFeW0g/SZIvXwUWZAixc+fO6tNPP83+ZgdVeyNGYPM2tiE3vP3223oXURcuBealULoh&#13;
SZkgJI8o5SvKawvpJ0ny5avAfv/9d62Q5s+fnzXisLeyZ4dPs5su27uzAy9zWuweanaTpdfETqTs&#13;
Ympgm/gLL7ww+9uLraDYRpseHbDFObuV2sYkLnwzgd12JUgIGnzwla8ykO/a1pSyIIQmn3zFDf8S&#13;
qjLbbtNTwhrx0ksv1XHDhw9XkydP1t9RJD179tTKDRN3toOHBx98UPfOiMM0fsqUKdlzAopx7ty5&#13;
OXGvv/66nktj7qxRo0b6//Dqq6/qeTauwee4ceNy/ueHbybYFZQECfmCD77yVQZc16Y4rbceZc9O&#13;
EYRwuOQrrviX0ISTpEwQkkeU8uW69hdfZPRt9aoWoUh+++03PerEiFLaA8/J89q45CuuiAIThCKI&#13;
Ur5c1/7994wCu+giO0UIA5U6UxX28p60wfPxnDyvjUu+4oooMEEogijly+/ajRopZRkKCyGhZ5J2&#13;
5WXgOXleGz/5iiOiwEJy2mlKbbddbujff2X6scfWTD/iiJXpAwfWTD/hhJXp/frVTD/jjJXpe+xR&#13;
M/2CC1am//nPNdONF7AVK2qmEa6/PpP+/fc10wi3355Jx8DUTiPcd18m/eOPa6YRzNI9bG/sNEL1&#13;
1Kl6/fWaaYSXX86k47TFTiP85z+Z9KlTa6YRzHQr80N2GmHBgkz6hAm58TNmZOJd1JV8BcHv2p06&#13;
KXXggXasEAZXhZ5mXM/rJ19xRBRYSDCe/MtfcgNKy3D22TXTTzllZfpJJ9VMHzZsZTpL7+x077DQ&#13;
oYfWTL/yypXpffvWTL/hhkwaCsxOIxi7mB9/rJlGMArqq69qphEeeiiTzooKO42AYoF582qmEV54&#13;
IZP+9ts10whGkbz2Ws00wjvvZNKff75mGuGDDzLpuOq00wjVywwVxq/eeKMYXdSVfAXB79qschkz&#13;
xo4VwuCq0MsJ62eN39dmzZppC27zG2vwfLBU6eSTT7aj8+J6Xj/5iiOiwAIybRoLt/ERaacIlUhY&#13;
+Ro0aJBq0qSJ08UazgDq1aun5ySCEPbaQnBcFXpUjBgxQl199dU5cSxvKiWu502SfIkCCwhO83HJ&#13;
WCHD40IBwsoXTqtnzpxZQ4HhCACHAXiOqa0CQzaXL7djhTC4KvSoMAqMtbHs6NG9e3d1+umnqxkz&#13;
Zqjtt99eu+rD/+x7772nj59W1cree++9s/+l0YQTCZYtXW/mCSxcz+snX3FEFFhADjggM8cgCFCM&#13;
fLmcXB9QJVh4psFFWm0V2MUXZywRS9xIryjsCr2q/q8Rbr45k8aQu51GqPbtoIfc7bQweBUYisk4&#13;
h8Atn+mJPfvss6ofE+eqpgJDueEEArliba3LZN5+XvCTrzgiCiwgVY0ftfvudqxQqRQjX7YCe/TR&#13;
R9Up1ROkpVBgVKwoMNaECcVhV+i2AopKgd11113ZeHrtffv21bKEc4eOHTvqeFuBGecT0Kmq9f3Z&#13;
Z59lfxvs5wU/+YojosAC0qKFUkcfbccKlUox8uVVYD9W1X4MCX377bf6dyEFFsRRNUYoKLBZs+wU&#13;
ISiuCj0qvArM616P32ZIEJky+zDaCsw7f4bccayN63mLke2oEAUWAHreq66KUNgpQqVSjHx5Fdg7&#13;
77yjjTqofAhsGdS6deuq3lPh7pPftVlmgAJ79lk7RQiKq0KPCj8FRu8Ld33mGFFgKaTUmfDTTzJB&#13;
LqykGPmyhxC9FOqBefG7NuvdUGBm2YMQHleFHhV+CoydQvBRixHH+eefLwosjSQpE4TkEVa+BgwY&#13;
oJo3b67q16+vnVbbTqlLocBoYJ13Xv71a0J+XBV6mnE9r598xRFRYAF45RWlTj9dKc+OMEKFU0r5&#13;
CkuU1047rgo9zbieN0nyVe+HH36w41JBKTMBTxcMzVibSgsVTCnlKyz5rk0jK8A0muCDq0JPM67n&#13;
zSdfcaOeWUOQNkqZCXhnWX99O1aoZEopX2HJd+2tt1bqr3+1Y4WguCr0NON63nzyFTfqsYFkGill&#13;
JuBf0GfuXahQSilfYcl3bdYqbr+9HSsExVWhpxnX8+aTr7hRr23btnZcKihlJnAqvMALgqGU8hWW&#13;
fNc+7DClNtvMjhWC4qrQ04zrefPJV9zIa8QxdepU1aFDB7X55purUWZPDg8LFixQO++8szbn7NKl&#13;
i3oCd98qYy681lprZb0o48cLli9fno0jNG7cWJ2Kk0GV8RXXtWtXvR7GazIKrEJv166dDt4V6fko&#13;
ZSZ07qzUMcfYsUIlU0r5Cku+a2NstO66dqwQFFeFnmZcz5tPvuKGrwLD79ZmVU25jz76SLvx32qr&#13;
rdQcNnTycOyxx6pbqvcwJ82sR8i33sVLt27dtOIC/jNr1ix1+OGH5yiwpUuXameUfC5btkx/57MQ&#13;
pc4EtiIRBEOp5SsM+a5NOxODI9wcCeFxVejlhA7BU089lRN33XXXqeOPPz4nztCrVy+9jUqxuJ43&#13;
n3zFDV8FxmI5vGQbLr/8ch28DBkyRF1xxRX6O8fjPBKCKLB58+apjTfeuMbup/aivfvvv19fx8B3&#13;
4gqRpEwQkkeU8pXv2qwBo03JwnshPK4KvZzgMuyoo47KievRo0e2oW8jCswHlMhgdlesZsKECWqo&#13;
tV/5okWLtDNJFmY2bNhQvfnmmzoeBYZxCEOLO+20k3rppZdy/gcjR45UZ555ph1dQ4GxmvySSy7J&#13;
/r744otr7JHjolSZ8NZbmR2X2YxREAylkq9iiPLaacdVoZcTRppwMWY2r6QuxcUYPTDyvXPnzupC&#13;
dtWtRhSYD0EU2OjRo/VmfEAPbIsttlArVqzQLvzZWRRQavS02ALAC8caheelNgosiMPTsNx7b2ZI&#13;
xmxLLwgQZSHPd23qPZz5BnTqIVjkVOgU/LoIBcAdFDsVALYHNPRRbMDUDkqL6RYQBeZDkCFEWgO4&#13;
9jcwP7VkyRLPERnsl8z+R/jycmErsKiHEM2cwvff2ylCJVMq+SqGfNeePz8jr3fcYacIQYiDAru3&#13;
qtWM6zHA2I2G/pgxY7SRG8ZyG220kZo4caJOt+vWsKRWgbFhGgppflWJMEYcs2fPzjlmzz33VHdW&#13;
b37Di2jRooWe0/ryyy+zm69hBNKyZctsCwKGDRuW0w32Yisw/oepP4YbBL57z+VHqTKBTmfDhnas&#13;
UOmUSr6KId+1caxDHVk9NS2ExFWhl5vvq1rLDCOygzcNfepgLMGN8Rp1pKl3RYHlAbN4XiDWiGZz&#13;
tOHDh6vJkyfr71ge9uzZUys3WgpPP/20jsfVP70z4mg1TJkyJXtOQDHOtcbkXn/9dT2XxtwZu4fy&#13;
f8P48eN1BhLuCNi0LFUm4NWgqtEjCDmUSr6KodC18U1wxhl2rBAEV4UeBQcddJCuP2noM2JFHcv0&#13;
zOLFi1XTpk1FgVWTV4ElmVJlwiGHKHXooXasUOmUSr6KodC18U0wcKAdKwTBVaFHwSOPPFLVk66X&#13;
bejT66Iz0bt3b7X//vuLAqtGFJggFEGU8lXo2t27i+eYYnFV6GnG9byF5CtOiAIThCKIUr4KXZt1&#13;
sC+8YMcKQXBV6GnG9byF5CtOiALLAxuY9uih1PPP2ylCpYN8maUi5aYUsi24cVXoacb1vEmSL1Fg&#13;
eZg2LWPR9dxzdopQSdx2223qqquuyv5+55131Oqrr65WXXVVLWdflHkDrkKyzcoW3JJaTm6EALgq&#13;
9DTjet5C8hUnRIHlYcKEjAITLxyVDWtvbrzxxuzv3XbbTTurvuGGG7SDaXyClpNCsj16dEZuv/nG&#13;
ThEKQYVuu7dLKzynKLCYUopMuOyyTEUgjlErm/XXX189++yz+vu3336re18oLrjvvvtK5vUlKIVk&#13;
+557pOFVLKy5+uqrr1KvxHg+npPntSkkX3FCFFgeTjhBqcaN7Vih0lh33XXVv/71L/398ccfV2us&#13;
sYZe3wj4+aQ3Vk4KyTZGHCiwV16xU4RC/Pbbb7pSp2eS9sBz8rw2heQrTogCywMuGA8+2I4VKg2U&#13;
1RnVK4MHDhyot7ww8vXAAw9oTzPlpJBs45EeBfbww3aKIBSmkHzFCVFgglAAhgkx2GADVj4feuih&#13;
rHyxWSsu1cpJIdleuDCjwG691U4RhMIUkq84IQpMEALw8ssv650XzL5MRr5w9WN2Is/HoEGDtH87&#13;
7z55F1xwgTYQwWXQ7rvvrj7//HPPP/wpJNu//67Uk08qFfB0gpBDIfmKE6LAfMBwo1Urpao9tghC&#13;
DmHlC8WHc1avAvNuMXT99dfr3lwQwl5bEMKQJPkSBeYDFlwMw2BKL1Q2r776qnrssceyv1nAvOGG&#13;
G+rNXNmryey8UIh8O5WzVZHftvE2QWQbmxNZvygUQxD5iguiwHyg8KPAxAuH8Oc//1lddNFF2d8M&#13;
BzIX1q9fP717ApusBsGlwM477zy94SvxbEMUhCCyveOOSu2yix0rCIUJIl9xQRSYDwwdosA++MBO&#13;
ESoNNhDEfB4wO15vvfVUmzZt9O/rrrtOderUyXO0Py4FZqAH5rdHHoTdbbxKtyqfSwlCXmpbd5YT&#13;
UWA+YEKPAvv5ZztFqDRY58V6L3jllVd074v9mYC5LXphQcinwBYsWOCbZhNEthmNbNLEjhWEwgSR&#13;
r7ggCsyH+++XfcCEDGykalxJnX/++Vp5Gfl69NFHdQ8tCLYCe//997PfcUt1wAEHZH/nI4hs05lb&#13;
ZRWlAk7PCUKWIPIVF0SBCUIBMHdn2BAFs/baa2vHvka+GPbbYYcdrH/UZMCAAap58+aqfv36eufx&#13;
cePG6Tk0FBqm9Pvss49ayAKuAASR7ZtuyowgLFlipwhCfoLIV1zIq8CmTp2qOnTooFugo0aNspP1&#13;
sAdeCbbZZhtdCM16GFqaDLuwvoVgzIOXL1+ejSOwMPTUU0/Vab/88oveRptrde/eXZ8j37kKUdtM&#13;
kJarYMDK8NJLL9VKZuTIker333/Pytd+++2nrr32WusfdUsQ2UZxzZrFnJ2dIgj5CSJfccFXgVFo&#13;
N9tsM/XRRx+pX3/9VQ+bzJkzJ+cYvHDfcsst+jtpZmLbHirxo1u3btmFoTfffHNWOU2cOFErMwh6&#13;
LpvaZgI+EP/2NztWEDLUVr5qQ5TXFtJPkuTLV4FNnz5d9enTJ/sbKymClyFDhqgrrrhCf+d4M5QS&#13;
ROnMmzdPmw8br89ci3MALVx6Z6QFOZeL2mTC999nhl+qH00QNO+++6666aabtNl869at1ezZs+1D&#13;
ykIQ2V6+nEYhe5fZKYKQnyDyFRd8FdikSZPU4MGDs78nTJighg4d6jlCqUWLFunFnIzpN2zYUL35&#13;
5ps6HqWDZRZDizvttFPWgssLQzEsAjWgpD777LPsb3p/uPsPci4XtcmEuXMzCuzee+0UoRKhQXXY&#13;
YYdp68NVVllFh3pVAsJvnPsGXchcKoLIdlXR0TJ8/fV2iiDkJ4h8xYVaKbDRo0dr/3BA72mLLbZQ&#13;
K1as0PNZZrt1lBo9La/bHOBYo/DAT4EFOZch7FoZP555JlP4q0c3hQoHIw72AGMe7JNPPtEyScON&#13;
38TnW79VFwSpYKqKYZWCxWrSThGE/ASRr7jgq8CCDCF27txZfcr+5dVsuummaonD7KlXr17qjTfe&#13;
yP5+++23Vfv27T1H+A8h2tjn8qM2mTB+fEaBOfZ6EyqQtm3b6hEDL0a+iCe9nASV7WbNmKe2YwUh&#13;
P0HlKw74KjCUCAqJTc+MEYc95s82EndWe7tlg7QWLVpopYNLHDOsghEI+yUtXbo0+79hw4bVaLUy&#13;
t+A14jjwwAP190Ln8qM2mfDyy0rR2axqaAuC3sDS7MhsMPJFPOnlJKhsd+mClaQdKwj5CSpfccBX&#13;
gQFm8fSUGM5juASGDx+uJk+erL9jedizZ0+t3DBxf/rpp3X8gw8+qHtnxLEZ4JQpU7LnBBTjXCaa&#13;
PPz888+qf//+2ox+u+2208oKCp3LjyRlghBv6GF5fSFCEnpgu+6qVIAlaoKQQ1D5igN5FViSqU0m&#13;
4FNV1s8IBrxvMNeF9SENq59++knPgTGkTu+LRl05CSrb7Ae2bJkdKwj5CSpfcUAUmAOs9vv2tWOF&#13;
SoXh9EMOOURbH2J5SMAKkd9YJ5JeTmoj24JQiCTJlygwB+uvr9TJJ9uxQqXDHDAL9xlOx8qV38yB&#13;
4YWmnASV7RkzMovxZS5XCENQ+YoDosAssNDHAvHKK+0UwcCWIhj3YLiT9sBz8rw2Rr6Yo6VHVk6C&#13;
yvbtt2dk2WMoLAgFCSpfcUAUmAXesij0eKMX3FCps0bPtcwhTfB8PCfPa5MEBYatFbLsWW4pCAUJ&#13;
Kl9xQBSYxVNPZQo9pvSCG3omaVdeBp6T57VJggJ77bWMLD/5pJ0iCP4Ela84IArMgh2YcbyPKx7B&#13;
jatCTzOu502CAmMlCgrs7rvtFEHwJ6h8xQFRYEJoXBV6OcG1mNlep1mzZnpxu/nNovt84MXl5AAW&#13;
OpjLm8D6Ru9vAmb0fLIAP64KDIe+KLBqb2+CEIig8hUHRIFZfPihUgH3FaxYolZgXkaMGKGuvvrq&#13;
nLhSmLV7TeZdwTjzNceVk6CyzSgvSqxCRnuFEhFUvuKAKDCL3XdXqnt3O1bwEkcFduSRR2pXZGyG&#13;
evrpp6sZM2ao7bffXu9iwDY/7733nj5+2rRpau+9987+d9CgQdq/Jt5hrve4br/rrruygQXL3t8E&#13;
vG94f5eTYmVbEIKQJPkSBWbRqZNS/frZsYKXuCowFJPxm8mOBaYnxlqtftWZaiswlBve5bE2bNSo&#13;
kdNk3vW8xcpXKQhz7RtukCFEIRxh5CtqRIF5YKilQQOlTj3VThG82BV6VQemRmAzRfjxx5pphGof&#13;
0NpYxk4Lg1eBeXtC7JLQt29fvU0P81UdO3bU8bYCMz4+oVNV68W7pY/Bfl4oRr5KRZhr77UXO5/b&#13;
sYLgTxj5ihpRYB6++UYmvYNgV+i2AopKgbGHnYHfZkiQTVHbtGmjv9sKzDt/hrLjWBv7eaEY+SoV&#13;
Ya591FFKtW5txwqCP2HkK2pEgXlg+3UU2AMP2CmCF1eFHhV+CozeFybu5phKVWBnn63UmmuKIYcQ&#13;
nDDyFTWiwDywzdg994jrnUK4KvSo8FNgbI7KVkAYceBNvlIVGI9Ho8xnE3NBqEEY+YoaUWBCaFwV&#13;
eppxPW9Y+cLasUmTJlpJGs466yw9N4czYHqM3zCGHYAw12YRM86pHXpZEJyEka+oEQXmYdYsWu52&#13;
rGDjqtDTjOt5w8rXiy++qGbOnJmjwFggbSwlzznnHB2CEObaMnQohCWMfEWNKDAP22yj1Hbb2bGC&#13;
jatCTzOu5y1Gvhie9CowLw8//LA69NBD7WgnxVxbEIKSJPkqqMCmTp2qOnTooDbffHM1CieBFgsW&#13;
LFA777yznmtgKOSJJ57Q8RTWtdZaK+vih0WmsHz58mwcoXHjxurUart11uMcdNBB+losSPXOR7CY&#13;
lHju5Sk87hYgbCYYAw7WzQj5cVXoacb1vGHlC/IpsH322UfdwwRsAMJc+9tvlTrkEKUef9xOEQQ3&#13;
YeQravIqMBaFbrbZZtrnGz7mttpqKzWH/UY8HHvssXqTPyDNTJbnK6xeunXrpodX4Oabb84quokT&#13;
J2plBpyXa6Pg2NqCezILVv0ImwlYa9Wvr9SXX9opgo2rQk8zrucNK1/gVyZYi8YcWD4P/2PHjtXX&#13;
JLCZZlB+/jnTMPMsdxOEvBQj21GRV4FhydWnT5/sb3pBBC9DhgxRV1xxhf7O8Xg2AL/C6mXevHlq&#13;
4403zhZcrsU5gLkBemek2df1HudHmExAF7ZsqdS++9opggtXhZ5mXM8bRr4MrjJx5513apdXP7Jg&#13;
LiBhr40Rxymn2LGC4CasfEVJXgWGWfLgwYOzvydMmKCGDh3qOUKpRYsWaU8HrVq1Ug0bNlRvVu+e&#13;
R2FdZ5119NDiTjvtpF566aWc/8HIkSPVmWeemf1N4fZ6QqCnhYsfrukdXjn66KNzTKZdhMmEd99V&#13;
au21lfrnP+0UwYWrQk8zrucNI18GW4ExPL/FFltU9frDdfud1/7lF6V+/dWO1bRrp9SAAXasILhx&#13;
yldMqbUCGz16tLqm2nUFvSIK5IoVK/RwH9teAEqNnhb+6bxwrFF4UFsFVuwwC3BrPuVfsHBV6OWE&#13;
OVd7HvS6665Txx9/fE6coVevXnoblWJxPW/YQj6gSoM0b95c1a9fXzf2xo0bp+d0KRf2PHEhnNem&#13;
fFQ1GNVuu2XGC9mRFaVWRc+eSvXubR0vCD445Sum5FVgQYYQO3furP3OGfDqvWTJEs8RGexK5O23&#13;
39YLTb1EMYSYZ9pB8MFVoZcTGipH4SPJQ48ePbJzqTa27IXF9bxB5asucF77/PMzk13ewLBCleZ6&#13;
aJuL1bn/92LdtNBQktWKUkgHTvmKKXkVGEoEhYThhDHimD17ds4xe+65px7HBwp6ixYttNJhWMQY&#13;
WmAEwqaDS3F1Uc2wYcPUhRdemP0NbA7oNeI48MAD9Xeu6TXi4J5KZcRR1alUHLp4sZ0i+OGq0MsJ&#13;
csSiYLN5JUNzrVu31j0w8p1GlVe2KkKBAULMOPiJJzKcUVOhNWyIk0ilsBSurTLj/yNGZPxUce7V&#13;
V1eqUSOlMOLi2ttvn9mb6JJLan8toaz4ylcMyavAALN4ekoM5xnP3cOHD1eTJ0/W37EQ7Nmzp1Yw&#13;
DIOwOBPwQ0dFQlzXrl3VlClTsucElNDcuXNz4n7++WfVv39/PbSy3XbbacVn4NrcA2b0Tz75pOdf&#13;
boJmAmWs6lbUihV2iuCHq0IvN7iDevTRR/V3lncwl2oaSDRuUFqzWJmuKkiB2TC3hj/Ik05iqKR0&#13;
ymzmTFVV4FeeC+VlK0tv2HZbpd5/3z5LemAYB6/UyBhTG/jvYqoFl2VbbslciFK33Wb/K7YElq8Y&#13;
UFCBJZUgmfD550qxmW6VPhZCkFOh25VVqUIB7r33Xj2vBDSSmEsdM2aMbiyxHnGjjTbSvXioWAVW&#13;
De29nXZS6pt/v5fpEVW9n5x3jTJjSJYD8ykzhgoZqlxttcz/qhqa6oUXVqZRic+fn3Fp88orSv3j&#13;
H5keGceyTxEjNYXG7PFMQi+SvGUZzcCBTHorxfwmppRnnZW5B5Ro1PDMPJNXmecL9Iwd+82F5vvv&#13;
lbrgAqWw+GaR32WXKUWHgu3kS9ASDytfUVLPjkgLQTLBODpNc+OwLoiDAvu+qhAzjIh7JkYIGFqm&#13;
575s2TKdjnNfM7Rd6QqM3RV4pTlLONmh2qXMNtwwozAYSfFWtq+/vnJYcpVVlDrtNKV++GFluh/4&#13;
dzz44JXnRym5fD4ShzGYUXiFwhprZBRkGH76SSmsoV97jXkJvDBkrlvtziswKGreXbNmK+9n3XVp&#13;
SSm1336ZDQWvu06pRx5R6q23lBo/PnO/HEdLIqTVaRaUE3vetWhR832YgCEPPV561yg23hHKnhXt&#13;
AQkrX1FSz45IC0EygbLLUL0QDleFHgUsdKf3xXwXRkEMY2MBu3jxYtW0aVNRYNU8/3ymbps2zU6p&#13;
hqH8iy/ODHd5K8PGjfFUkFFWDFUQh+EVvasw0Oui4qUXxjmwEMZKEug1nHxyRgGY63INFACal0nq&#13;
ceOUwlnC3/+u1FVXKXXYYZnjUKQcFwSsnTmvXeGbgMELCql7d6UOPzxT+TP8yhobVoMD74k5+rXW&#13;
Wvk/el88WyFDln//e6Xi4flRbGHgfZHv5rrcJ0PoKMfTT8eyLbOY1X4ub9hoo0yFx/sbOdK3NxxW&#13;
vqKknh2RFgplAo0Z8r56Kk8IgatCj4JHqlq49aoKpplLpddFb6x3795q//33FwVWDZ0N6q9AHRa6&#13;
aRhndOqUW/mhwBi+oxdTLAx10Dsw56M3ghIy18DW/7HHCg+DUfFeeeXK/7GW1O8/xKP0zDxd27YZ&#13;
h6c8X6tWmVXeRjn7BdJROt44trp+7jlfJeCEOYsePTL/R2EGyZBPPsntwXLPLJnwe15GIFB2t96a&#13;
ya++fTMNE67nvf88y4zCyleU1LMj0kKSMiFpuCr0NON63ijlK+y1GbGizrrxRjslD1TM9D6YIKbF&#13;
XmDZSmCYYzv33JWKi6E15t+qetChoSLH/xvnYc7M7gWhMHbddWWlTU/P9Ka88KwMhy5cyLYBGYML&#13;
lOI++2R6bWbOj57XkCEIhH2G4HB9hvfMPZ13nlJffJGZN3zmmcwzjR7N9gSZ9256e3xiWRtk2NYF&#13;
z8j74Ploud9+u31ElrDyFSUVqcAY8mZEgqFsITyuCj3NuJ43n3zVNWGvzYoTpmeqO6TxgF4CFTWV&#13;
d22g0l9vvUwlv8suK+d6GFphCJR4hs5q480YpcucYfX8aq1BmTD0WajnZwKGGszXlYmw8hUlFanA&#13;
cOKAXDz0kJ0iBMFVoacZ1/Pmk6+6pjbXZiSVEbSLLsp89xuJShTMJzVvninUTGwzT2Uqf9bJLFpk&#13;
/yMePPtsxsQeBYuBDAqYniRGIMzBMfcXdq6sBNRGvspNRSowtl3C2MoecRCC4arQ04zrefPJV11T&#13;
m2szgoT1tRnBw26BETyzkJ/ORphpndjw8cdKdey4UnEx54VVYyo0dHmpjXyVm4pTYMuXZ+Yzfdzm&#13;
CQGgQs+39Uea4DnTpMAMzIth4Id9AMZrxjYDg8MNNmCbo4zFO1M03qFHRvzwFBfW8rws4Ht1jz0y&#13;
Nx+HdWIJpRTyVS4qToFRGGmgvfqqnSIEhTVXOFlOuxLj+XhOntfGT77KQamv7e2kMHWE444998x4&#13;
scd+oUmTlekYtZlODoqOETBsHQysrcRWgnW2GP/dfHNmOZSBZVgsMaMnOGNGxnbB40pV2zhIpyla&#13;
Si1fdUnFKbAzzsgYFqW87q1TfvvtN12p0zNJe+A5eV4bP/kqB+W8No+O8ZoBy3GsGZlDQ1ExHO/d&#13;
oAIFh2MPr30CS5YMLqcVXk/5KEQzAoibRUZL6CUacPuG5TvK0wSvE/+mTXPTuBezYxPPgrtGAlMI&#13;
JvAswJpm8z+uYQJKGVC05tqcl/NgJzJ2bCad1Rxc3wSGZwn3359Jp1PIUjACvV4CVvGsHACUO9bt&#13;
BNZzm2CcnTB37403wawQYU6fVQIm8K54n/+tHkC4995M3cfqhXyUU75qS8UpMCjWElUQDPnkq66J&#13;
8tpBoYGIxyOGG72OsrHMxwARRYhhIGuFWWhtwDoYhYKlPZbk7JTOOmEDXqSwcfAGz05LWlmZeDxP&#13;
Ecw+f1hjomzpYRJQwASzFpQ9Rb3nZTiVgKEj4GrTnJf/cQ68Q5n7R9EzNUFAqZpg1n3j2pV14ccc&#13;
kwnsVIXTE5ycAOv1mI/Eyt6EI47I9FKBtdjeNBOMJyHeK8cTWIuNFy6CMWCk54tBI/edjyTIl6Ei&#13;
FZgg1JYo5SvKawvpJ0nyJQpMEIogSvmK8tpC+kmSfIkCE4QiiFK+ory2kH6SJF+pVWDs5kxGuMIm&#13;
m2xSIy7KELf7IcTtnuJ2P8hXVIhsFx/idj+EuN1TlLIdltQqsHyQSXEibvcDcbunuN1PXInbe5L7&#13;
KUwc7ykpiAKLAXG7H4jbPcXtfuJK3N6T3E9h4nhPSUEUWAyI2/1A3O4pbvcTV+L2nuR+ChPHe0oK&#13;
FanAxpqVhzEhbvcDcbunuN1PXInbe5L7KUwc7ykpVKQCEwRBEJKPKDBBEAQhkVSUAps6darq0KGD&#13;
2nzzzdWoUaPs5Eho06aN2nLLLdXWW28d2Vj4oEGDVJMmTdSf2JOomqVLl6rddttNtWvXTn8uK9Vm&#13;
fgFw3c+IESNUy5Yt9XsiPPHEE55/CCLbNXHJUZRyDa57EtkunopRYP/73//UZpttpj766CP166+/&#13;
qq222krNmTPHPqzsUMjxeB4lL774opo5c2ZOoTr77LOzFSGf5+CYrky47odCfrXxqirkILLtxiVH&#13;
Uco1uO5JZLt4KkaBTZ8+XfXp0yf7+/LLL9chaqIu5IaPP/44p1DRml9UvZMtn/wuJ/b9SCH3R2Tb&#13;
H1uOopZrsO9JZLt4KkaBTZo0SQ3G/XM1EyZMUEO9+0BERNu2bVXXrl1Vt27dIrVGsgvVBuwZUQ37&#13;
Ynl/lwP7fijkVIhdunTRwzDlHvqJMyLb/thyFLVcg31PItvFIwosYhYuXKg/lyxZood+GGKIArtQ&#13;
2QW7IRsglRH7fhYvXqyHylasWKHOO+88XdCFDCLb/thyFLVcg31PItvFUzEKLK7DLF6iHEqwC1XU&#13;
Qy32/XjJl1aJiGz7Y8tK1HIN9j15yZcm1KRiFNjvv/+uNt10U73Drpnons0OchHyww8/qOXLl2e/&#13;
77DDDtqaLArsgnPWWWflTHYz+V1O7PsxlQ5ce+216mDvNr0Vjsi2P7YcRS3XYN+TyHbxVIwCA8xT&#13;
27dvry22Lr30Uju57GA1RmVD6Ny5c2T3NGDAANW8eXNVv3591apVKzVu3Dj19ddfq969e2tz4113&#13;
3VWbH5cL1/0MHDhQm2QzT7DvvvvmFHpBZNuFS46ilGtw3ZPIdvFUlAITBEEQ0kPZFJhrAZ8XLIJO&#13;
PvlkvRCTlghrJQx33XWXbjER+C4IcUJkWxCioWwKzLWAzwtDIHvuuacu7K+99prq3r27jqeLz/g+&#13;
n5iX8l3MTIU4IbItCNFQNgUG9uSllyFDhqj7778/+9tYCxFHmt9xghAHRLYFofzERoHtvffe6uWX&#13;
X87+ZqL1jTfe0Ka3l1xySTb+4osvjsQcVxDyIbItCOUnVQqM1f44DSU0aNAg+12ChFKHxo0b58ie&#13;
yLaEtARbtuNMbBSYPXxS22EWMkIQ6gpbvkS2hbSQJPmKjQJ7/PHHcya6t9tuOx3PBDc+1ZjcJvA9&#13;
yNqNJGWCkDxs+RLZFtJCkuSrbArMtYBvzJgxOgCF+8QTT9QLMVnUxxCLYfz48doEmXDHHXdk4/OR&#13;
pEwQkodXvkS2hTSRJPkqmwIrN0nKBCF5RClfUV5bSD9Jki9RYEJofvvtN+1377///W/qA8/J89pE&#13;
KV9RXjvtiGwnS75EgQmhQfDZqJChsTTD8/GcPK9NlPIV5bXTjsh2suRLFJgQGlpvaS/gBp6T57WJ&#13;
Ur6ivHbaEdlOlnyJAhNC4xL6NON63ijlK8prpx1XXqcZ1/MmSb5EgQmhcQl9OWFLjK233lqHZs2a&#13;
qZYtW2Z/sx9WPrAAxLFuGFzPG6V8RXnttOPK63JS6bIdFlFgQmhcQh8Vrp1+2eCxlLieN0r5ivLa&#13;
aceV11FRibIdFlFgQmhcQh8VppAfeeSR6rjjjtOe3k8//XQ1Y8YMtf3226ttttlG7wb83nvv6eOn&#13;
TZumXTuZ/7IVSq9evbQn+Ouvv9576iyu541SvqK8dtpx5XVUVKJsh0UUmBAal9BHhbeQU3j/97//&#13;
6fjvvvsu21p99tlnVb9+/fR3u5BTAfzyyy/aIqtRo0ZOs2LX80YpX1FeO+248joqKlG2wyIKTAiN&#13;
LfRVjbwa4eabM2k//lgzjXDnnZn0qrJVIy0M3kLu3RDy008/VX379tXunfB+0bFjRx1vF3LvVved&#13;
OnVSn332Wfa3wX5eiFK+orx22rHz2pZNke14IQpMCI0t9HYhjaqQT5o0KRvPbzNsgp/CNm3a6O92&#13;
IffOMVAhcKyN/bwQpXxFee20Y+e1LZsi2/FCFJgQGpfQR4VfIaeF+uCDD2aPSVMhj/LaaceV11FR&#13;
ibIdFlFgQmhcQh8VfoV8+vTpqn379nqi+/zzz09VIY/y2mnHlddRUYmyHZZQCuyLL77QFjAvvvhi&#13;
jRA3kpQJScMl9GnG9bxRyleU1047rrxOM67nTZJ8BVJgCxcuVLvssotaddVVa4RVVllFf8aNJGVC&#13;
0nAJfZpxPW+U8hXltdOOK6/TjOt5kyRfgRTYvvvuqzbaaCN1zTXXqKefflq98MILNULcSFImJA2X&#13;
0KcZ1/NGKV9RXjvtuPI6zbieN0nyFUiBNWzYUE2YMMGOjjVJyoSk4RL6NON63ijlK8prpx1XXqcZ&#13;
1/MmSb4CKbAWLVqop556yo4OxdSpU1WHDh30zrOjRo2yk9Vpp52W9fnFBOUGG2yQTWOI0qTRGwxC&#13;
kjIhabiEPs24ntcrXyLb6cGV12nG9bxJkq9ACuzCCy9Uhx12mB0dGFaQs536Rx99pB1SbrXVVmrO&#13;
nDn2YVluuOEG7QbF0KBBA09qMJKUCUnDJfRpxvW8Rr5EttOFK6/TjOt5kyRfgRTY2LFjtT+t3r17&#13;
a9PM8ePH1wj5wOyzT58+2d+XX365Dn7gAuWZZ57J/pZCHi9cQp9mXM9r5EtkO1248jrNuJ43SfIV&#13;
SIFhaZgvFLJCZA3D4MGDs7+ZTxs6dKjniJV88sknqnnz5lm/X7Daaqvpl9qjRw/1yCOPeI72J0mZ&#13;
kDRcQl9Odt555xpD2tddd506/vjjc+IMvXr10ltNFIvreY18iWynC1del5M4yXYSCKTAKHiFQj7C&#13;
FPIrrrhCnXTSSTlxmPEDwzQs2vvwww9z0g30FHn5hE022cROFkqES+jLCfl81FFH5cShAPzWI9Zl&#13;
IRfZTheuvC4ncZLtJBBIgdWWMMMsrC5/9dVX7egs9qp0P5KUCUnDJfTlZOnSpapJkybZDf7wMNC6&#13;
dWvdSiXfO3furOdtDXVZyEW204Urr8tJnGQ7CYRSYO+++6666aab1MUXX6w/Z8+ebR/iBNf/zKHN&#13;
nz8/O9Ht+u/cuXN1K/SPP/7Ixi1btkxvCQBsC9CuXbu8k+SGJGVC0nAJfbnBZc6jjz6qv2P5d+aZ&#13;
Z+rCDwzRUbBnzZqlf9dlIRfZTheuvC43cZHtJBBIgVFIsUI0nje8c18DBw7MGdP344knntAmxFhs&#13;
GTf/w4cPV5MnT84eg/+uYcOGZX8DLVa2DKBi4HPcuHE56X4kKROSRo7Q16tXN6EA9957rxowYID+&#13;
jgn6m2++qcaMGaO6du2qunTpohfeT5w4UafXdSEX2U4PItvJkq/Cb7OKCy64QK2++uq6cDLfRauR&#13;
T34T7+3SxoUkZULSiEMh//777/VQy8yZM7XyoAfEOix6NcBw3J3V+1qkrZBHee20I7KdLPkq/Dar&#13;
aNu2rRo5cqQdrSGe9LiRpExIGi6hj4KDDjpIt1BpQL399tu6J7NixQq1ePFi1bRpU99Cfvfdd4cK&#13;
rueNUr6ivHbaceV1FBQr22FxPW+S5CuQAltjjTX01tUuiCc9biQpE5KGS+ijALPzelUtWuaXgJYp&#13;
LVbWK+6///6+hdxeBpIvMEzuet4o5SvKa6cdV15HQbGyHRbX8yZJvgIpMHpYF110kR2tkR5Y5eES&#13;
+iRhLwEpFFzPG6V8RXnttOPK6zTjet4kyVcgBcamacx1YX3IepWffvpJj8tiLkzviwnruJGkTEga&#13;
LqFPM67njVK+orx22nHldZpxPW+S5CuQAsMK8ZBDDskOqXj3Ajv00EN1etxIUiYkDZfQpxnX80Yp&#13;
X1FeO+248jrNuJ43SfIVSIEZWN9yyy23aOtDPl3rXeJCkjIhabiEPkkw5M3arSAB03jX80YpX1Fe&#13;
O+248jrNuJ43SfIVSoEliSRlQtJA6L0LcpMGE+K46wka4lbIo7x22km6bIeB54ybbIfFV4EtWLBA&#13;
/fbbb9nvhULcSFImJA3mP/EckfaCzvPxnDyvTZTyFeW1047IdrLky1eBMcc1Y8YM/d2e+3KFuJGk&#13;
TEgaNGwQfFpvaQ88p2nIeYlSvqK8dtoR2U6WfPkqsLvuukt9/fXX+jtrDvidL8SNJGWCED0sFv3H&#13;
P/5RYxEzwUWU8hXltYX0kyT58lVgSSdJmSBExzfffKN69uyZY1lrjzi4iFK+ory2kH6SJF9FKzC8&#13;
Zj/44IPq888/t5NiQZIyQYiOE044QXXs2FG98sorWnHhBXzatGnq8MMP197hcaTqIkr5ivLaQvpJ&#13;
knwFUmBs0Hfcccdlfz/00EOqfv36usBvsMEG6vXXX/ccHQ+SlAlCdGAmzzAhOyogz16FxR5MKDIX&#13;
UcpXlNcW0k+S5CuQAjOF3MDWD3379lXvvPOO2n333fX+NXEjSZkgRMfaa6+tXn755ex3el+GZ555&#13;
RjVq1Cj720uU8hXltYX0kyT5CqTAKNhmS+vPPvtMt1SNheJjjz2mvSPHjSRlghAdLFZGhqFTp045&#13;
uymzWF8UmFBpJEm+Aimwxo0b6037gM3WGDbEtT/QYkXBxY0kZYIQHQwR4usTLrvsMrXmmmuqIUOG&#13;
qBNPPFE1aNBAu1BzEaV8RXltIf0kSb4CKTCGCffaay/17rvvqh122EH1798/m3bHHXfoIcYgTJ06&#13;
VXXo0EFvzsZW2TaY67PbKPvgEG6//fZsGqb6TKoTgpjtJykThOj48MMP1UsvvaS/sybmjDPOUK1a&#13;
tVIbbrihVl5mKYmNV77KKdcgsi3UJUmSr0AKDCMNhlIwKeZz1qxZ2bS//vWv2e2v88EkOYoOb/a/&#13;
/vqr3qANS0YvFHQMRmyWLl2qh3r4ZFdSvpvdSf1IUiYIycPIV7nlGkS2hbokSfIVSIHBDz/8oC20&#13;
vvvuu5z4xx9/XM2bNy8nzsX06dNVnz59sr+Za/DON4BfQb///vv1sI6B78TlI0mZIEQHvS5k2wXx&#13;
Lk8FYOSr3HINIttCXZIk+QqswGrLpEmT1ODBg7O/J0yYUKNQU9CbN2+uunTpog444AD16aef6vir&#13;
r75aXXLJJdnj2JeMuHwkKROE6DjiiCN857kOO+wwNWjQIDtaY+Sr3HINIttCXZIk+fJVYJjNm/F/&#13;
27WOKxQiSEHner/88ov+fuutt6pddtlFfw9a0MeOHatfPmGTTTaxkwWhBq1bt1YPPPCAHa3BtZSf&#13;
HIVRYLWVaxDZFspFKhSY11TeuNfxC37udrwEGWrxwtzC+uuvr78XM9SSpEwQogOrw+eff96O1hBP&#13;
uoswQ4heaivXILIt1CVJki9fBfbJJ5/oSWnzvVAoBLs2M0mNB2Qz2W1viLlo0aLs94cfflj16NFD&#13;
f2eSm00ImeAm8J24fCQpE4TooAd2/fXX29Ea4lu2bGlHa4x8lVuuQWRbqEuSJF++CqwuYC1Z+/bt&#13;
tdUWuzrD8OHD1eTJk/X3c889V3Xu3FlXAjvvvLOaO3du9r/jx4/XZsoETPcLkaRMEKIDX4iYuHst&#13;
awEvMyzQ97pQ8+KVr3LKNYhsC3VJkuQrkAJ77bXX9HyAi3/+85/q3//+tx0dOUnKBCE62NSPNVj4&#13;
9mSN44EHHqi90/MbpUS6iyjlK8prC+knSfIVSIHRarzwwgvtaM3IkSOzk9JxIkmZIEQLW6rQY9p+&#13;
++210kKRjRgxQn377bf2oVmilK8ory2knyTJVyAFhleCJ5980o7W4IUAV1NxI0mZICSPKOUrymsL&#13;
6SdJ8hVIgeHrkAXLLohfa6217OjISVImCNHDUCFOfXHnZAwpfv7556zPT5so5SvKawvpJ0nyFUiB&#13;
devWLcfc1wvx+HeLG0nKBCE6/vjjD3XWWWdpc3mzJGTmzJk6DfN41ma5iFK+ory2kH6SJF+BFNht&#13;
t92mCzcFHbdRP/74o3r//ff179VWW00vsowb+TKh6tYFQYMHekYQ+MTnJ3JuFNiNN96ounfvbv0j&#13;
Qz75qmuivLaQfpIkX4EUGJx55plaWdFCNYHfKLE44pcJt9yi1Oqr46DYThEqEdZwmYXHZldmo8Dy&#13;
ze/6yVc5iPLaQvpJknwFVmDA1hNjxozRrVV6XXjgjit+mYB3LDzxtG2rVADH30LKWWONNbKeOGwF&#13;
9q9//ct3ftdPvspBlNcW0k+S5CuUAksS+TKBZWv0wvbdVymfOXqhQqAHdsMNN+jvtgK79tpr1RZb&#13;
bOE9PEs++aprory2kH6SJF+BFRhbS+BaB2/arPtiDgwmTpyY41kgLhTKBLwH1at6+quuslOESuKc&#13;
c87RnjheeeWVrAL7z3/+o+d62diSdY4uCslXXRLltYX0kyT5CqTA2P4BNzkMt+AOx2uphRWi1xt3&#13;
XCiUCX/8odTRR+NJxE4RKomffvpJ7bjjjlqm6Y2hwHDrhKz36tUr6w/UppB81SVRXltIP0mSr0AK&#13;
DPc6DKXgtBfnpd5hlvvuu09vpx43wmYCCk2oTOh5sQ0K+3/tvvvueodx1oN9//336u9//7t9uCas&#13;
fJWSKK8tpJ8kyVcgBdawYUPt8xDseYIXXnhBNWjQwHt4LAiTCawC2Gsvns1OEdIOC5hZC+aFZSLX&#13;
XHONatGihe9WQWHkq9REeW0h/SRJvgIpsHXWWUebFIOtwPC4vcEGG3gPjwVhMmHcuMx82IgRdoqQ&#13;
Rthc8pRTTlHrrruuVlC4SruF9RVV3HPPPXr3ZGScNWDPPPOM9e8MYeSr1ER5bSH9JEm+AikwnJwe&#13;
c8wx+rutwI4//njVu3dv7+GxIEwm0AA/8kg27lTq6aftVCFtnHfeeVqGGS4cNmyYOuigg9Tqq6+u&#13;
TjrpJB3fsWNHNWXKFPtvOYSRr1IT5bWF9JMk+QqkwB566CFdsFFirJnhOy1VPNRT8E3vLE6EzYQf&#13;
flDqT39Siv0LxbQ+3WCkMXTo0Jw49uVCrnEf5We44SWsfJWSKK8tpJ8kyVcgBQYsYGaokCEXCjqB&#13;
rdGDupFCyWHsQeUxatQoO1mNHj1aG4p06dJF9+i8uzxzTfwtEvZl8VYAismEu+/ODCXOmWOnCGkC&#13;
C8PnnnsuJ44tVZDpp556KifeD698JUG2BSEoSZKvQAqMfZGYN2At2LPPPqstDynoy5cvtw91wrAj&#13;
Zvh47jDbrs+xtAQ9OybPgfkIhnUMxRiJFJMJ332n1Oef27FC2kBRzZgxIyfOHhovhJGvpMi2IAQl&#13;
SfJVUIFhNo/Pw0JzAvmYPn26Hpox4HvO+J9zwUJSdsU1SCEXSgmK6uGHH9ZKxwQW5hOPnHvj/dyl&#13;
GfkS2RbSRpLkq6ACg5YtW6onnnjCjg7MpEmTchY7s+bGnoPwQtoll1yS/Y0C5aX26NFDPfLII54j&#13;
/Sk2EzA6GzhQ5sHSDIrK65TaBL94F0a+kiTbghCEJMlXIAWGu53999/fjg5MmEKOcQiFmSFLw8KF&#13;
C/UnreE2bdpop8IumI/j5RM2wWNvEdx5Z2Ye7N137RQhLbBIOUxwUYwCi1q2BSEIqVNgjNvjF27b&#13;
bbfVrcdx48Zpqy1vyEfQYRbm1zp16qSWLFliJ2U58sgjdaVRiGIzYf78jAK78UY7RRBWEnYIMQ6y&#13;
LQhBSJJ8BVJgxurQL/gNsxiYR8PP3Pwq7WAmumfPnp1zDHMDTIYbJ8GGZcuWZVuseE1o165djUly&#13;
F8VmAmvCaOD272+nCMJKjHwlSbYFIQhJkq9ACoydavE4j/mvXygEc2jt27fXBfnSSy/VccOHD9ee&#13;
PGDXXXdVTZs2rWFS/Oqrr6ott9xSVwx80vsLQm0y4fDDlWrSRPwjCv545StJsi0IhUiSfPkqMMyD&#13;
R4wYof0g0sNiwXK/fv30epkkUJtMYNpj221pFdspgpChNvJVW6K8tpB+kiRfvgrspptu0sOD7P2F&#13;
EUf//v21xdRRRx1lHxpLkpQJQvKIUr6ivLaQfpIkX74KjKEO9vrycuutt6r69esHcrUTNaXIBDGl&#13;
F/wohXwVS5TXFtJPkuTLV4Gtt9562nLKi3G3Y09Gx5HaZgKGZJtuKvNggpvayldtiPLaQvpJknz5&#13;
KrBSuNuJktpmwu23Z8zp5861UwSh9vJVG6K8tpB+kiRfeRVYbd3tREltM+GDDzIKbMwYO0UQai9f&#13;
tSHKawvpJ0nylVeB2S51wrrbiZLaZgJDh2ytMmCAnSIItZev2hDltYX0kyT58lVgtjudQiFulCIT&#13;
Dj1UqebNZR5MqEkp5KtYory2kH6SJF++CizplCIT8F988cVsQW+nCJVOKeSrWKK8tpB+kiRfosAE&#13;
oQiilK8ory2knyTJlyiwArDJ5Vtv2bFCpVMq+SqGKK8tpJ8kyZcosAIcckjGmEPmwQQvpZKvYojy&#13;
2kL6SZJ8iQIrwK23ZszpMasXBEOp5KsYory2kH6SJF+iwArAQmYUGAubBcFQKvkqhiivLaSfJMmX&#13;
KLACMHTYrJlSAwfaKUIlUyr5KoYory2knyTJlyiwABx0kFIbbyzzYMJKSilfYYny2kL6SZJ8iQIL&#13;
wKxZSr39tigwYSWllK+wRHltIf0kSb7KqsCmTp2qOnTooDbffHM1atQoO1lvr35QVXeH9O7du6uP&#13;
P/44m3b55ZfreP7/1FNPrfyTD0nKBCF5eOWrnHINIttCXZIk+SqbAsOTPVuu4/iX/cTYRn3OnDk5&#13;
x9x8883quOOO098nTpyoCz1wHMdTEcyfP1+fh/Plo9SZwO7wd95pxwqVipGvcss1lFq2BcFLkuSr&#13;
bAps+vTpqk+fPtnftDwJXkjnOPj9999V48aN1R9//FHjWO9xfpQ6E/r3V2qTTWQYUchg5Kvccg2l&#13;
lm1B8JIk+SqbAps0aZIaPHhw9veECRPU0KFDPUco9ac//Ul99tln2d+0SL/66it93D333JONP/ro&#13;
o/X58uGbCdjES5AQNPhg5Kvccg0i2xJKEnzwla8Y4v8UJaYcBX3s2LH65RMaNGiQ/W6HTaq6UnZc&#13;
lCFu90OI2z3F7X7oRUE55BpEtksT4nY/hLjdk5HtJFA2BRbFUIsfZFKciNv9QNzuKW73Y4iTXEPc&#13;
3pPcT2HieE9JoWwKjIK76aab6slqM9k9e/bsnGNuuummnMnuAw88UH/nOO9kN+cJMtntR9wEJm73&#13;
A3G7p7jdjyFOcg1xe09yP4WJ4z0lhbIpMHjiiSdU+/bt9RDKpZdequOGDx+uJmPiV8XPP/+s+vfv&#13;
r82Kt9tuO23ZZeB4/oe58ZNPPpmNL4a4CUzc7gfidk9xux8vcZFriNt7kvspTBzvKSmUVYHFBeYT&#13;
4kTc7gfidk9xu5+4Erf3JPdTmDjeU1KoSAUmCIIgJB9RYIIgCEIiqSgFVsjlTxS0adNGbbnllmrr&#13;
rbeObCx80KBBqkmTJtrc27B06VK12267qXbt2unPZcuWef5Rt7juZ8SIEaply5b6PRGYdxJWIrJd&#13;
E5ccRSnX4Lonke3iqRgFFsTlTxRQyFkTFCUvvviimjlzZk6hOvvss7MVIZ/nnHNONq2ucd0Phfzq&#13;
q6/2HCUYRLbduOQoSrkG1z2JbBdPxSiwIOt1oiDqQm7Away3UNGaX7Rokf7OJ7/LiX0/Usj9Edn2&#13;
x5ajqOUa7HsS2S6eilFgQTwmREHbtm1V165dVbdu3SK1RrIL1QYbbJD9zqJb7+9yYN8PhZwKsUuX&#13;
LnoYptxDP3FGZNsfW46ilmuw70lku3hEgUXMwoUL9eeSJUv00A9DDFFgFyq7YDds2DDnd11j38/i&#13;
xYv1UNmKFSvUeeedpwu6kEFk2x9bjqKWa7DvSWS7eCpGgcV1mMVLlEMJdqGKeqjFvh8v+dIqEZFt&#13;
f2xZiVquwb4nL/nShJpUjAIL4vKn3Pzwww9q+fLl2e877LCDtiaLArvgnHXWWTmT3Ux+lxP7fkyl&#13;
A9dee606+OCDs78rHZFtf2w5ilquwb4nke3iqRgFBi6XP1GC1RiVDaFz586R3dOAAQNU8+bNVf36&#13;
9VWrVq3UuHHj1Ndff6169+6tzY133XVXbX5cLlz3M3DgQG2SzTzBvvvum1PoBZFtFy45ilKuwXVP&#13;
ItvFU1EKTBAEQUgPosAEQRCERCIKTBAEQUgkosAEQRCERCIKTBAEQUgkosAEQRCERCIKTCiaevXq&#13;
aS8QgpA2RLaTgSiwhHLkkUfqQmaHHj162IfWGVLIhbpAZFsIiiiwhEIhZz+jL774IieUc2GmFHKh&#13;
LhDZFoIiCiyhUMj33ntvOzoLBfDGG29Ue+21l1p77bXVJptsou65556cY9555x3tjWCttdZSG264&#13;
oT7nt99+m3PMXXfdpb0ErLHGGqpp06bqiCOOyKZxDbyM9+/fX62zzjranZF9DUEIi8i2EBRRYAkl&#13;
SCFv1KiRuvXWW9W8efO0K59VVllFvfHGGzod/3QtWrRQ++23ny7sL7zwgnZF1K9fv+w5+O+aa66p&#13;
Ro8erd577z315ptvqquuuiqbzjVwh0PB/uCDD9S5556rVl99dbVgwYLsMYIQFpFtISiiwBIKhXy1&#13;
1VZTDRo0yAlmh1kK4DHHHJPzH1qkhx12mP5+2223qfXXXz/rcBWmTZum/0eBBQrwsGHDsuk2HEvB&#13;
NuBUlhaxtFSF2iCyLQRFFFhCoZDvsssuukB6g9kBlwI4fvz4nP9ccMEFeoNBOP3009WOO+6Yk44n&#13;
81VXXVVNnjxZ7+HEOZ555pmcY7yQfv/99+fEMZxDq1YQikVkWwiKKLCEEmSYpdhCPmXKlMCF3J7o&#13;
ZmfZKPZ9EtKDyLYQFFFgCSVIIT/22GNz4rDsOvTQQ/V3hlnYnba2wyxSyIVSI7ItBEUUWEKhkLtM&#13;
jb/88kudTgFs3LixLszvv/++3qGXie7XX39dp//44496ortv3756opvt3tmd1jvRfcstt+iJbjbZ&#13;
Y7L8rbfeUtdcc002XQq5UBeIbAtBEQWWUCjkFDI70LIEvmNqvMcee2hT4tatW2uzYS8Ubjb3I71h&#13;
w4b6nLapMRvubbHFFtoCq1mzZmrQoEHZNCnkQl0gsi0ERRRYSnEVQEFIAyLbgkEUWEqRQi6kFZFt&#13;
wSAKLKVIIRfSisi2YBAFJgiCICSS/w/Ph2ayUX24wgAAAABJRU5ErkJggg==</y:Resource>
      <y:Resource id="2" xml:space="preserve">&lt;?xml version="1.0" encoding="utf-8"?&gt;
&lt;svg version="1.1"
	 xmlns="http://www.w3.org/2000/svg" xmlns:xlink="http://www.w3.org/1999/xlink"
	 x="0px" y="0px" width="41px" height="48px" viewBox="-0.875 -0.887 41 48" enable-background="new -0.875 -0.887 41 48"
	 xml:space="preserve"&gt;
&lt;defs&gt;
&lt;/defs&gt;
&lt;linearGradient id="SVGID_1_" gradientUnits="userSpaceOnUse" x1="642.8008" y1="-979.1445" x2="682.0508" y2="-979.1445" gradientTransform="matrix(1 0 0 -1 -642.8008 -939.4756)"&gt;
	&lt;stop  offset="0" style="stop-color:#3C89C9"/&gt;
	&lt;stop  offset="0.1482" style="stop-color:#60A6DD"/&gt;
	&lt;stop  offset="0.3113" style="stop-color:#81C1F0"/&gt;
	&lt;stop  offset="0.4476" style="stop-color:#95D1FB"/&gt;
	&lt;stop  offset="0.5394" style="stop-color:#9CD7FF"/&gt;
	&lt;stop  offset="0.636" style="stop-color:#98D4FD"/&gt;
	&lt;stop  offset="0.7293" style="stop-color:#8DCAF6"/&gt;
	&lt;stop  offset="0.8214" style="stop-color:#79BBEB"/&gt;
	&lt;stop  offset="0.912" style="stop-color:#5EA5DC"/&gt;
	&lt;stop  offset="1" style="stop-color:#3C89C9"/&gt;
&lt;/linearGradient&gt;
&lt;path fill="url(#SVGID_1_)" d="M19.625,36.763C8.787,36.763,0,34.888,0,32.575v10c0,2.313,8.787,4.188,19.625,4.188
	c10.839,0,19.625-1.875,19.625-4.188v-10C39.25,34.888,30.464,36.763,19.625,36.763z"/&gt;
&lt;linearGradient id="SVGID_2_" gradientUnits="userSpaceOnUse" x1="642.8008" y1="-973.1445" x2="682.0508" y2="-973.1445" gradientTransform="matrix(1 0 0 -1 -642.8008 -939.4756)"&gt;
	&lt;stop  offset="0" style="stop-color:#9CD7FF"/&gt;
	&lt;stop  offset="0.0039" style="stop-color:#9DD7FF"/&gt;
	&lt;stop  offset="0.2273" style="stop-color:#BDE5FF"/&gt;
	&lt;stop  offset="0.4138" style="stop-color:#D1EEFF"/&gt;
	&lt;stop  offset="0.5394" style="stop-color:#D9F1FF"/&gt;
	&lt;stop  offset="0.6155" style="stop-color:#D5EFFE"/&gt;
	&lt;stop  offset="0.6891" style="stop-color:#C9E7FA"/&gt;
	&lt;stop  offset="0.7617" style="stop-color:#B6DAF3"/&gt;
	&lt;stop  offset="0.8337" style="stop-color:#9AC8EA"/&gt;
	&lt;stop  offset="0.9052" style="stop-color:#77B0DD"/&gt;
	&lt;stop  offset="0.9754" style="stop-color:#4D94CF"/&gt;
	&lt;stop  offset="1" style="stop-color:#3C89C9"/&gt;
&lt;/linearGradient&gt;
&lt;path fill="url(#SVGID_2_)" d="M19.625,36.763c10.839,0,19.625-1.875,19.625-4.188l-1.229-2c0,2.168-8.235,3.927-18.396,3.927
	c-9.481,0-17.396-1.959-18.396-3.927l-1.229,2C0,34.888,8.787,36.763,19.625,36.763z"/&gt;
&lt;path fill="#3C89C9" d="M19.625,26.468c10.16,0,19.625,2.775,19.625,2.775c-0.375,2.721-5.367,5.438-19.554,5.438
	c-12.125,0-18.467-2.484-19.541-4.918C-0.127,29.125,9.465,26.468,19.625,26.468z"/&gt;
&lt;linearGradient id="SVGID_3_" gradientUnits="userSpaceOnUse" x1="642.8008" y1="-965.6948" x2="682.0508" y2="-965.6948" gradientTransform="matrix(1 0 0 -1 -642.8008 -939.4756)"&gt;
	&lt;stop  offset="0" style="stop-color:#3C89C9"/&gt;
	&lt;stop  offset="0.1482" style="stop-color:#60A6DD"/&gt;
	&lt;stop  offset="0.3113" style="stop-color:#81C1F0"/&gt;
	&lt;stop  offset="0.4476" style="stop-color:#95D1FB"/&gt;
	&lt;stop  offset="0.5394" style="stop-color:#9CD7FF"/&gt;
	&lt;stop  offset="0.636" style="stop-color:#98D4FD"/&gt;
	&lt;stop  offset="0.7293" style="stop-color:#8DCAF6"/&gt;
	&lt;stop  offset="0.8214" style="stop-color:#79BBEB"/&gt;
	&lt;stop  offset="0.912" style="stop-color:#5EA5DC"/&gt;
	&lt;stop  offset="1" style="stop-color:#3C89C9"/&gt;
&lt;/linearGradient&gt;
&lt;path fill="url(#SVGID_3_)" d="M19.625,23.313C8.787,23.313,0,21.438,0,19.125v10c0,2.313,8.787,4.188,19.625,4.188
	c10.839,0,19.625-1.875,19.625-4.188v-10C39.25,21.438,30.464,23.313,19.625,23.313z"/&gt;
&lt;linearGradient id="SVGID_4_" gradientUnits="userSpaceOnUse" x1="642.8008" y1="-959.6948" x2="682.0508" y2="-959.6948" gradientTransform="matrix(1 0 0 -1 -642.8008 -939.4756)"&gt;
	&lt;stop  offset="0" style="stop-color:#9CD7FF"/&gt;
	&lt;stop  offset="0.0039" style="stop-color:#9DD7FF"/&gt;
	&lt;stop  offset="0.2273" style="stop-color:#BDE5FF"/&gt;
	&lt;stop  offset="0.4138" style="stop-color:#D1EEFF"/&gt;
	&lt;stop  offset="0.5394" style="stop-color:#D9F1FF"/&gt;
	&lt;stop  offset="0.6155" style="stop-color:#D5EFFE"/&gt;
	&lt;stop  offset="0.6891" style="stop-color:#C9E7FA"/&gt;
	&lt;stop  offset="0.7617" style="stop-color:#B6DAF3"/&gt;
	&lt;stop  offset="0.8337" style="stop-color:#9AC8EA"/&gt;
	&lt;stop  offset="0.9052" style="stop-color:#77B0DD"/&gt;
	&lt;stop  offset="0.9754" style="stop-color:#4D94CF"/&gt;
	&lt;stop  offset="1" style="stop-color:#3C89C9"/&gt;
&lt;/linearGradient&gt;
&lt;path fill="url(#SVGID_4_)" d="M19.625,23.313c10.839,0,19.625-1.875,19.625-4.188l-1.229-2c0,2.168-8.235,3.926-18.396,3.926
	c-9.481,0-17.396-1.959-18.396-3.926l-1.229,2C0,21.438,8.787,23.313,19.625,23.313z"/&gt;
&lt;path fill="#3C89C9" d="M19.476,13.019c10.161,0,19.625,2.775,19.625,2.775c-0.375,2.721-5.367,5.438-19.555,5.438
	c-12.125,0-18.467-2.485-19.541-4.918C-0.277,15.674,9.316,13.019,19.476,13.019z"/&gt;
&lt;linearGradient id="SVGID_5_" gradientUnits="userSpaceOnUse" x1="642.8008" y1="-952.4946" x2="682.0508" y2="-952.4946" gradientTransform="matrix(1 0 0 -1 -642.8008 -939.4756)"&gt;
	&lt;stop  offset="0" style="stop-color:#3C89C9"/&gt;
	&lt;stop  offset="0.1482" style="stop-color:#60A6DD"/&gt;
	&lt;stop  offset="0.3113" style="stop-color:#81C1F0"/&gt;
	&lt;stop  offset="0.4476" style="stop-color:#95D1FB"/&gt;
	&lt;stop  offset="0.5394" style="stop-color:#9CD7FF"/&gt;
	&lt;stop  offset="0.636" style="stop-color:#98D4FD"/&gt;
	&lt;stop  offset="0.7293" style="stop-color:#8DCAF6"/&gt;
	&lt;stop  offset="0.8214" style="stop-color:#79BBEB"/&gt;
	&lt;stop  offset="0.912" style="stop-color:#5EA5DC"/&gt;
	&lt;stop  offset="1" style="stop-color:#3C89C9"/&gt;
&lt;/linearGradient&gt;
&lt;path fill="url(#SVGID_5_)" d="M19.625,10.113C8.787,10.113,0,8.238,0,5.925v10c0,2.313,8.787,4.188,19.625,4.188
	c10.839,0,19.625-1.875,19.625-4.188v-10C39.25,8.238,30.464,10.113,19.625,10.113z"/&gt;
&lt;linearGradient id="SVGID_6_" gradientUnits="userSpaceOnUse" x1="642.8008" y1="-946.4946" x2="682.0508" y2="-946.4946" gradientTransform="matrix(1 0 0 -1 -642.8008 -939.4756)"&gt;
	&lt;stop  offset="0" style="stop-color:#9CD7FF"/&gt;
	&lt;stop  offset="0.0039" style="stop-color:#9DD7FF"/&gt;
	&lt;stop  offset="0.2273" style="stop-color:#BDE5FF"/&gt;
	&lt;stop  offset="0.4138" style="stop-color:#D1EEFF"/&gt;
	&lt;stop  offset="0.5394" style="stop-color:#D9F1FF"/&gt;
	&lt;stop  offset="0.6155" style="stop-color:#D5EFFE"/&gt;
	&lt;stop  offset="0.6891" style="stop-color:#C9E7FA"/&gt;
	&lt;stop  offset="0.7617" style="stop-color:#B6DAF3"/&gt;
	&lt;stop  offset="0.8337" style="stop-color:#9AC8EA"/&gt;
	&lt;stop  offset="0.9052" style="stop-color:#77B0DD"/&gt;
	&lt;stop  offset="0.9754" style="stop-color:#4D94CF"/&gt;
	&lt;stop  offset="1" style="stop-color:#3C89C9"/&gt;
&lt;/linearGradient&gt;
&lt;path fill="url(#SVGID_6_)" d="M19.625,10.113c10.839,0,19.625-1.875,19.625-4.188l-1.229-2c0,2.168-8.235,3.926-18.396,3.926
	c-9.481,0-17.396-1.959-18.396-3.926L0,5.925C0,8.238,8.787,10.113,19.625,10.113z"/&gt;
&lt;linearGradient id="SVGID_7_" gradientUnits="userSpaceOnUse" x1="644.0293" y1="-943.4014" x2="680.8223" y2="-943.4014" gradientTransform="matrix(1 0 0 -1 -642.8008 -939.4756)"&gt;
	&lt;stop  offset="0" style="stop-color:#9CD7FF"/&gt;
	&lt;stop  offset="1" style="stop-color:#3C89C9"/&gt;
&lt;/linearGradient&gt;
&lt;ellipse fill="url(#SVGID_7_)" cx="19.625" cy="3.926" rx="18.396" ry="3.926"/&gt;
&lt;path opacity="0.24" fill="#FFFFFF" enable-background="new    " d="M31.04,45.982c0,0-4.354,0.664-7.29,0.781
	c-3.125,0.125-8.952,0-8.952,0l-2.384-10.292l0.044-2.108l-1.251-1.154L9.789,23.024l-0.082-0.119L9.5,20.529l-1.65-1.254
	L5.329,8.793c0,0,4.213,0.903,7.234,1.07s8.375,0.25,8.375,0.25l3,9.875l-0.25,1.313l1.063,2.168l2.312,9.645l-0.521,1.416
	l1.46,1.834L31.04,45.982z"/&gt;
&lt;/svg&gt;
</y:Resource>
    </y:Resources>
  </data>
</graphml>
